(footprint "DFN4-SHTC3" (version 20210824) (generator pcbnew) (layer "F.Cu")
  (tedit 61462361)
  (attr smd)
  (fp_text reference "REF**" (at 0 -2.025) (layer "F.SilkS")
    (effects (font (size 1 1) (thickness 0.15)))
    (tstamp 8d09a0f0-2e26-4ffb-9749-a1f708477f09)
  )
  (fp_text value "DFN4-SHTC3" (at 0 2.025) (layer "F.Fab")
    (effects (font (size 1 1) (thickness 0.15)))
    (tstamp 753b4f4d-f8c0-49c9-8e69-851fe603c1f0)
  )
  (fp_text user "${REFERENCE}" (at 0 0) (layer "F.Fab")
    (effects (font (size 0.5 0.5) (thickness 0.075)))
    (tstamp cee050ac-4bff-4785-bf36-058b83cd83fc)
  )
  (fp_line (start -1 1.1) (end 1 1.1) (layer "F.SilkS") (width 0.15) (tstamp 31a2775e-b896-4b92-889b-23f7b8694405))
  (fp_line (start 0 -1.1) (end 1 -1.1) (layer "F.SilkS") (width 0.15) (tstamp 6726a7d2-4c74-4e86-865d-10e0d243f6c1))
  (fp_line (start -1.65 1.25) (end 1.65 1.25) (layer "F.CrtYd") (width 0.05) (tstamp 1ac906b5-cf41-4675-8e65-4a7ce8387783))
  (fp_line (start -1.65 -1.25) (end 1.65 -1.25) (layer "F.CrtYd") (width 0.05) (tstamp 3c2d4fd3-7551-4560-bdc9-5089cbd94b3d))
  (fp_line (start 1.65 -1.25) (end 1.65 1.25) (layer "F.CrtYd") (width 0.05) (tstamp 6415770a-f610-4175-825f-c93a91017d9b))
  (fp_line (start -1.65 -1.25) (end -1.65 1.25) (layer "F.CrtYd") (width 0.05) (tstamp a2dcac98-d495-4df1-90e0-f41ff7d4ecc5))
  (fp_line (start 1 -1) (end 1 1) (layer "F.Fab") (width 0.15) (tstamp 0ddfcbf6-acbd-4241-9681-3e5f035cb6da))
  (fp_line (start 1 1) (end -1 1) (layer "F.Fab") (width 0.15) (tstamp 2e8e582f-ade7-4b26-b8f9-d5e422ce64e7))
  (fp_line (start -1 -0.5) (end -0.5 -1) (layer "F.Fab") (width 0.15) (tstamp 9b23136a-d1b8-427c-835b-0f50ed22e5aa))
  (fp_line (start -0.5 -1) (end 1 -1) (layer "F.Fab") (width 0.15) (tstamp bea2bb57-1ae9-4d8e-adb4-7b244e64802b))
  (fp_line (start -1 1) (end -1 -0.5) (layer "F.Fab") (width 0.15) (tstamp d2a0818c-70f3-4531-a164-e9ae3c4ef929))
  (pad "1" smd roundrect locked (at -1 -0.5) (size 0.7 0.35) (layers "F.Cu" "F.Paste" "F.Mask") (roundrect_rratio 0.25) (tstamp 762602fb-5fab-4265-aeb6-565d4390006a))
  (pad "2" smd roundrect locked (at -1 0.5) (size 0.7 0.35) (layers "F.Cu" "F.Paste" "F.Mask") (roundrect_rratio 0.25) (tstamp 092b53e3-c8fa-4906-aa07-3179919bc1d1))
  (pad "3" smd roundrect locked (at 1 0.5) (size 0.7 0.35) (layers "F.Cu" "F.Paste" "F.Mask") (roundrect_rratio 0.25) (tstamp f49b86c8-a25e-4913-90ae-11b99b3190ad))
  (pad "4" smd roundrect locked (at 1 -0.5) (size 0.7 0.35) (layers "F.Cu" "F.Paste" "F.Mask") (roundrect_rratio 0.25) (tstamp 95c4d333-4ed9-47a9-87c5-013071c07214))
  (pad "5" smd roundrect locked (at 0 0) (size 0.7 1.6) (layers "F.Cu" "F.Paste" "F.Mask") (roundrect_rratio 0.25)
    (solder_paste_margin -0.1) (tstamp 077212fb-7b62-431f-b08e-f8a328428452))
)
