(footprint "LGA-8_2SMPB-02B" (version 20210824) (generator pcbnew) (layer "F.Cu")
  (tedit 614750E6)
  (tags "lga land grid array")
  (attr smd)
  (fp_text reference "REF**" (at 0 -3.1) (layer "F.SilkS")
    (effects (font (size 1 1) (thickness 0.15)))
    (tstamp 3905b292-ac69-4ff6-84f1-9ee570eb1219)
  )
  (fp_text value "Bosch_LGA-8_2x2.5mm_P0.65mm_ClockwisePinNumbering" (at 0 3.1) (layer "F.Fab")
    (effects (font (size 1 1) (thickness 0.15)))
    (tstamp 595771e4-a76d-4be6-9634-5d3ab43ca7b4)
  )
  (fp_text user "${REFERENCE}" (at 0 0) (layer "F.Fab")
    (effects (font (size 0.5 0.5) (thickness 0.075)))
    (tstamp 0d1a21e8-390f-4032-91ca-8af6336a9d26)
  )
  (fp_line (start 1.35 -0.46) (end 1.35 -1.1) (layer "F.SilkS") (width 0.1) (tstamp 20391169-f199-42d2-b074-e1b4d9a3d432))
  (fp_line (start 1.35 1.1) (end 1.35 0.46) (layer "F.SilkS") (width 0.1) (tstamp 2f0538ff-b881-4b54-9e2e-b0d5eaf9b68f))
  (fp_line (start -1.35 1.1) (end -1.35 0.46) (layer "F.SilkS") (width 0.1) (tstamp 6d20776b-0d28-46cc-a243-f18420204cb9))
  (fp_line (start 0.87 -1.1) (end 1.35 -1.1) (layer "F.SilkS") (width 0.1) (tstamp 961a332e-d023-4ba8-a93d-26ea1adc28cb))
  (fp_line (start 0.87 1.1) (end 1.35 1.1) (layer "F.SilkS") (width 0.1) (tstamp acc081ef-9051-44db-9732-8773ef485ec0))
  (fp_line (start -1.35 -0.46) (end -1.35 -1.1) (layer "F.SilkS") (width 0.1) (tstamp db109484-c60a-4f81-b111-71b48507d8c7))
  (fp_line (start -1.35 1.1) (end -0.87 1.1) (layer "F.SilkS") (width 0.1) (tstamp ddbc8394-097a-491f-ab7d-aa048a36d617))
  (fp_line (start -1.55 1.3) (end -1.55 -1.3) (layer "F.CrtYd") (width 0.05) (tstamp 02dd45ef-ec03-4375-b2b9-f6fe4ed60d01))
  (fp_line (start 1.55 -1.3) (end 1.55 1.3) (layer "F.CrtYd") (width 0.05) (tstamp 07c628dd-556e-4f88-8680-d183e3058b25))
  (fp_line (start -1.55 -1.3) (end 1.55 -1.3) (layer "F.CrtYd") (width 0.05) (tstamp 5ea2134a-9184-48f2-a649-aa1bf85d187a))
  (fp_line (start 1.55 1.3) (end -1.55 1.3) (layer "F.CrtYd") (width 0.05) (tstamp cdbe9266-445f-4def-8024-1fd160a2b3f0))
  (fp_line (start 1.25 -1) (end -1 -1) (layer "F.Fab") (width 0.1) (tstamp 044e4f85-0701-4910-9cf4-18dfe86a3d11))
  (fp_line (start -1 -1) (end -1.25 -0.75) (layer "F.Fab") (width 0.1) (tstamp 5b2bf36b-f352-4aff-8cb9-6addb88d4119))
  (fp_line (start 1.25 -1) (end 1.25 1) (layer "F.Fab") (width 0.1) (tstamp acebc3f3-f50e-436d-9612-28a50419a2b8))
  (fp_line (start -1.25 1) (end -1.25 -0.75) (layer "F.Fab") (width 0.1) (tstamp ebd3a2e4-a0b3-4d8e-ac0e-19ee96ccaeea))
  (fp_line (start -1.25 1) (end 1.25 1) (layer "F.Fab") (width 0.1) (tstamp f85d2fe1-9014-4fac-ab3d-3c7dbced4961))
  (pad "1" smd roundrect locked (at -0.975 -0.8 90) (size 0.5 0.35) (layers "F.Cu" "F.Paste" "F.Mask") (roundrect_rratio 0.25) (tstamp d4f7e0f2-8eaa-4bfd-b5b1-534016625286))
  (pad "2" smd roundrect locked (at -0.325 -0.8 90) (size 0.5 0.35) (layers "F.Cu" "F.Paste" "F.Mask") (roundrect_rratio 0.25) (tstamp 9b5caae6-0603-43db-b6bf-54583837edfa))
  (pad "3" smd roundrect locked (at 0.325 -0.8 90) (size 0.5 0.35) (layers "F.Cu" "F.Paste" "F.Mask") (roundrect_rratio 0.25) (tstamp a9d9cd85-9304-4321-8c2f-4f3776376836))
  (pad "4" smd roundrect locked (at 0.975 -0.8 90) (size 0.5 0.35) (layers "F.Cu" "F.Paste" "F.Mask") (roundrect_rratio 0.25) (tstamp 3066f395-bcbc-46f0-b453-1bc391e9ef90))
  (pad "5" smd roundrect locked (at 0.975 0.8 90) (size 0.5 0.35) (layers "F.Cu" "F.Paste" "F.Mask") (roundrect_rratio 0.25) (tstamp 2aa3d98a-1785-4e2c-9293-77bd82bd8fcc))
  (pad "6" smd roundrect locked (at 0.325 0.8 90) (size 0.5 0.35) (layers "F.Cu" "F.Paste" "F.Mask") (roundrect_rratio 0.25) (tstamp 817278e6-0345-499f-a446-e9f2fc0f4ddb))
  (pad "7" smd roundrect locked (at -0.325 0.8 90) (size 0.5 0.35) (layers "F.Cu" "F.Paste" "F.Mask") (roundrect_rratio 0.25) (tstamp f9091b64-9f86-40dc-9b50-3f72ef6c2157))
  (pad "8" smd roundrect locked (at -0.975 0.8 90) (size 0.5 0.35) (layers "F.Cu" "F.Paste" "F.Mask") (roundrect_rratio 0.25) (tstamp 1ccf727a-1ca7-4b50-a64c-093b814e4a4d))
  (pad "9" smd roundrect locked (at -0.975 0 90) (size 0.5 0.35) (layers "F.Cu" "F.Paste" "F.Mask") (roundrect_rratio 0.25) (tstamp a54d51dd-7bf1-4e01-bc80-70c6ac549067))
  (model "${KISYS3DMOD}/Package_LGA.3dshapes/Bosch_LGA-8_2x2.5mm_P0.65mm_ClockwisePinNumbering.wrl"
    (offset (xyz 0 0 0))
    (scale (xyz 1 1 1))
    (rotate (xyz 0 0 0))
  )
)
