(kicad_sch (version 20211123) (generator eeschema)

  (uuid d5f8ae31-c276-4547-8f2e-5c98f3fd464c)

  (paper "USLetter")

  (title_block
    (date "2021-09-17")
  )

  (lib_symbols
    (symbol "Connector:TestPoint" (pin_numbers hide) (pin_names (offset 0.762) hide) (in_bom yes) (on_board yes)
      (property "Reference" "TP" (id 0) (at 0 6.858 0)
        (effects (font (size 1.27 1.27)))
      )
      (property "Value" "TestPoint" (id 1) (at 0 5.08 0)
        (effects (font (size 1.27 1.27)))
      )
      (property "Footprint" "" (id 2) (at 5.08 0 0)
        (effects (font (size 1.27 1.27)) hide)
      )
      (property "Datasheet" "~" (id 3) (at 5.08 0 0)
        (effects (font (size 1.27 1.27)) hide)
      )
      (property "ki_keywords" "test point tp" (id 4) (at 0 0 0)
        (effects (font (size 1.27 1.27)) hide)
      )
      (property "ki_description" "test point" (id 5) (at 0 0 0)
        (effects (font (size 1.27 1.27)) hide)
      )
      (property "ki_fp_filters" "Pin* Test*" (id 6) (at 0 0 0)
        (effects (font (size 1.27 1.27)) hide)
      )
      (symbol "TestPoint_0_1"
        (circle (center 0 3.302) (radius 0.762)
          (stroke (width 0) (type default) (color 0 0 0 0))
          (fill (type none))
        )
      )
      (symbol "TestPoint_1_1"
        (pin passive line (at 0 0 90) (length 2.54)
          (name "1" (effects (font (size 1.27 1.27))))
          (number "1" (effects (font (size 1.27 1.27))))
        )
      )
    )
    (symbol "Connector_Generic:Conn_01x02" (pin_names (offset 1.016) hide) (in_bom yes) (on_board yes)
      (property "Reference" "J" (id 0) (at 0 2.54 0)
        (effects (font (size 1.27 1.27)))
      )
      (property "Value" "Conn_01x02" (id 1) (at 0 -5.08 0)
        (effects (font (size 1.27 1.27)))
      )
      (property "Footprint" "" (id 2) (at 0 0 0)
        (effects (font (size 1.27 1.27)) hide)
      )
      (property "Datasheet" "~" (id 3) (at 0 0 0)
        (effects (font (size 1.27 1.27)) hide)
      )
      (property "ki_keywords" "connector" (id 4) (at 0 0 0)
        (effects (font (size 1.27 1.27)) hide)
      )
      (property "ki_description" "Generic connector, single row, 01x02, script generated (kicad-library-utils/schlib/autogen/connector/)" (id 5) (at 0 0 0)
        (effects (font (size 1.27 1.27)) hide)
      )
      (property "ki_fp_filters" "Connector*:*_1x??_*" (id 6) (at 0 0 0)
        (effects (font (size 1.27 1.27)) hide)
      )
      (symbol "Conn_01x02_1_1"
        (rectangle (start -1.27 -2.413) (end 0 -2.667)
          (stroke (width 0.1524) (type default) (color 0 0 0 0))
          (fill (type none))
        )
        (rectangle (start -1.27 0.127) (end 0 -0.127)
          (stroke (width 0.1524) (type default) (color 0 0 0 0))
          (fill (type none))
        )
        (rectangle (start -1.27 1.27) (end 1.27 -3.81)
          (stroke (width 0.254) (type default) (color 0 0 0 0))
          (fill (type background))
        )
        (pin passive line (at -5.08 0 0) (length 3.81)
          (name "Pin_1" (effects (font (size 1.27 1.27))))
          (number "1" (effects (font (size 1.27 1.27))))
        )
        (pin passive line (at -5.08 -2.54 0) (length 3.81)
          (name "Pin_2" (effects (font (size 1.27 1.27))))
          (number "2" (effects (font (size 1.27 1.27))))
        )
      )
    )
    (symbol "Connector_Generic:Conn_01x04" (pin_names (offset 1.016) hide) (in_bom yes) (on_board yes)
      (property "Reference" "J" (id 0) (at 0 5.08 0)
        (effects (font (size 1.27 1.27)))
      )
      (property "Value" "Conn_01x04" (id 1) (at 0 -7.62 0)
        (effects (font (size 1.27 1.27)))
      )
      (property "Footprint" "" (id 2) (at 0 0 0)
        (effects (font (size 1.27 1.27)) hide)
      )
      (property "Datasheet" "~" (id 3) (at 0 0 0)
        (effects (font (size 1.27 1.27)) hide)
      )
      (property "ki_keywords" "connector" (id 4) (at 0 0 0)
        (effects (font (size 1.27 1.27)) hide)
      )
      (property "ki_description" "Generic connector, single row, 01x04, script generated (kicad-library-utils/schlib/autogen/connector/)" (id 5) (at 0 0 0)
        (effects (font (size 1.27 1.27)) hide)
      )
      (property "ki_fp_filters" "Connector*:*_1x??_*" (id 6) (at 0 0 0)
        (effects (font (size 1.27 1.27)) hide)
      )
      (symbol "Conn_01x04_1_1"
        (rectangle (start -1.27 -4.953) (end 0 -5.207)
          (stroke (width 0.1524) (type default) (color 0 0 0 0))
          (fill (type none))
        )
        (rectangle (start -1.27 -2.413) (end 0 -2.667)
          (stroke (width 0.1524) (type default) (color 0 0 0 0))
          (fill (type none))
        )
        (rectangle (start -1.27 0.127) (end 0 -0.127)
          (stroke (width 0.1524) (type default) (color 0 0 0 0))
          (fill (type none))
        )
        (rectangle (start -1.27 2.667) (end 0 2.413)
          (stroke (width 0.1524) (type default) (color 0 0 0 0))
          (fill (type none))
        )
        (rectangle (start -1.27 3.81) (end 1.27 -6.35)
          (stroke (width 0.254) (type default) (color 0 0 0 0))
          (fill (type background))
        )
        (pin passive line (at -5.08 2.54 0) (length 3.81)
          (name "Pin_1" (effects (font (size 1.27 1.27))))
          (number "1" (effects (font (size 1.27 1.27))))
        )
        (pin passive line (at -5.08 0 0) (length 3.81)
          (name "Pin_2" (effects (font (size 1.27 1.27))))
          (number "2" (effects (font (size 1.27 1.27))))
        )
        (pin passive line (at -5.08 -2.54 0) (length 3.81)
          (name "Pin_3" (effects (font (size 1.27 1.27))))
          (number "3" (effects (font (size 1.27 1.27))))
        )
        (pin passive line (at -5.08 -5.08 0) (length 3.81)
          (name "Pin_4" (effects (font (size 1.27 1.27))))
          (number "4" (effects (font (size 1.27 1.27))))
        )
      )
    )
    (symbol "Device:C" (pin_numbers hide) (pin_names (offset 0.254)) (in_bom yes) (on_board yes)
      (property "Reference" "C" (id 0) (at 0.635 2.54 0)
        (effects (font (size 1.27 1.27)) (justify left))
      )
      (property "Value" "C" (id 1) (at 0.635 -2.54 0)
        (effects (font (size 1.27 1.27)) (justify left))
      )
      (property "Footprint" "" (id 2) (at 0.9652 -3.81 0)
        (effects (font (size 1.27 1.27)) hide)
      )
      (property "Datasheet" "~" (id 3) (at 0 0 0)
        (effects (font (size 1.27 1.27)) hide)
      )
      (property "ki_keywords" "cap capacitor" (id 4) (at 0 0 0)
        (effects (font (size 1.27 1.27)) hide)
      )
      (property "ki_description" "Unpolarized capacitor" (id 5) (at 0 0 0)
        (effects (font (size 1.27 1.27)) hide)
      )
      (property "ki_fp_filters" "C_*" (id 6) (at 0 0 0)
        (effects (font (size 1.27 1.27)) hide)
      )
      (symbol "C_0_1"
        (polyline
          (pts
            (xy -2.032 -0.762)
            (xy 2.032 -0.762)
          )
          (stroke (width 0.508) (type default) (color 0 0 0 0))
          (fill (type none))
        )
        (polyline
          (pts
            (xy -2.032 0.762)
            (xy 2.032 0.762)
          )
          (stroke (width 0.508) (type default) (color 0 0 0 0))
          (fill (type none))
        )
      )
      (symbol "C_1_1"
        (pin passive line (at 0 3.81 270) (length 2.794)
          (name "~" (effects (font (size 1.27 1.27))))
          (number "1" (effects (font (size 1.27 1.27))))
        )
        (pin passive line (at 0 -3.81 90) (length 2.794)
          (name "~" (effects (font (size 1.27 1.27))))
          (number "2" (effects (font (size 1.27 1.27))))
        )
      )
    )
    (symbol "Device:R" (pin_numbers hide) (pin_names (offset 0)) (in_bom yes) (on_board yes)
      (property "Reference" "R" (id 0) (at 2.032 0 90)
        (effects (font (size 1.27 1.27)))
      )
      (property "Value" "R" (id 1) (at 0 0 90)
        (effects (font (size 1.27 1.27)))
      )
      (property "Footprint" "" (id 2) (at -1.778 0 90)
        (effects (font (size 1.27 1.27)) hide)
      )
      (property "Datasheet" "~" (id 3) (at 0 0 0)
        (effects (font (size 1.27 1.27)) hide)
      )
      (property "ki_keywords" "R res resistor" (id 4) (at 0 0 0)
        (effects (font (size 1.27 1.27)) hide)
      )
      (property "ki_description" "Resistor" (id 5) (at 0 0 0)
        (effects (font (size 1.27 1.27)) hide)
      )
      (property "ki_fp_filters" "R_*" (id 6) (at 0 0 0)
        (effects (font (size 1.27 1.27)) hide)
      )
      (symbol "R_0_1"
        (rectangle (start -1.016 -2.54) (end 1.016 2.54)
          (stroke (width 0.254) (type default) (color 0 0 0 0))
          (fill (type none))
        )
      )
      (symbol "R_1_1"
        (pin passive line (at 0 3.81 270) (length 1.27)
          (name "~" (effects (font (size 1.27 1.27))))
          (number "1" (effects (font (size 1.27 1.27))))
        )
        (pin passive line (at 0 -3.81 90) (length 1.27)
          (name "~" (effects (font (size 1.27 1.27))))
          (number "2" (effects (font (size 1.27 1.27))))
        )
      )
    )
    (symbol "Jumper:Jumper_2_Open" (pin_names (offset 0) hide) (in_bom yes) (on_board yes)
      (property "Reference" "JP" (id 0) (at 0 2.794 0)
        (effects (font (size 1.27 1.27)))
      )
      (property "Value" "Jumper_2_Open" (id 1) (at 0 -2.286 0)
        (effects (font (size 1.27 1.27)))
      )
      (property "Footprint" "" (id 2) (at 0 0 0)
        (effects (font (size 1.27 1.27)) hide)
      )
      (property "Datasheet" "~" (id 3) (at 0 0 0)
        (effects (font (size 1.27 1.27)) hide)
      )
      (property "ki_keywords" "Jumper SPST" (id 4) (at 0 0 0)
        (effects (font (size 1.27 1.27)) hide)
      )
      (property "ki_description" "Jumper, 2-pole, open" (id 5) (at 0 0 0)
        (effects (font (size 1.27 1.27)) hide)
      )
      (property "ki_fp_filters" "Jumper* TestPoint*2Pads* TestPoint*Bridge*" (id 6) (at 0 0 0)
        (effects (font (size 1.27 1.27)) hide)
      )
      (symbol "Jumper_2_Open_0_0"
        (circle (center -2.032 0) (radius 0.508)
          (stroke (width 0) (type default) (color 0 0 0 0))
          (fill (type none))
        )
        (circle (center 2.032 0) (radius 0.508)
          (stroke (width 0) (type default) (color 0 0 0 0))
          (fill (type none))
        )
      )
      (symbol "Jumper_2_Open_0_1"
        (arc (start 1.524 1.27) (mid 0 1.778) (end -1.524 1.27)
          (stroke (width 0) (type default) (color 0 0 0 0))
          (fill (type none))
        )
      )
      (symbol "Jumper_2_Open_1_1"
        (pin passive line (at -5.08 0 0) (length 2.54)
          (name "A" (effects (font (size 1.27 1.27))))
          (number "1" (effects (font (size 1.27 1.27))))
        )
        (pin passive line (at 5.08 0 180) (length 2.54)
          (name "B" (effects (font (size 1.27 1.27))))
          (number "2" (effects (font (size 1.27 1.27))))
        )
      )
    )
    (symbol "Mechanical:MountingHole_Pad" (pin_numbers hide) (pin_names (offset 1.016) hide) (in_bom yes) (on_board yes)
      (property "Reference" "H" (id 0) (at 0 6.35 0)
        (effects (font (size 1.27 1.27)))
      )
      (property "Value" "MountingHole_Pad" (id 1) (at 0 4.445 0)
        (effects (font (size 1.27 1.27)))
      )
      (property "Footprint" "" (id 2) (at 0 0 0)
        (effects (font (size 1.27 1.27)) hide)
      )
      (property "Datasheet" "~" (id 3) (at 0 0 0)
        (effects (font (size 1.27 1.27)) hide)
      )
      (property "ki_keywords" "mounting hole" (id 4) (at 0 0 0)
        (effects (font (size 1.27 1.27)) hide)
      )
      (property "ki_description" "Mounting Hole with connection" (id 5) (at 0 0 0)
        (effects (font (size 1.27 1.27)) hide)
      )
      (property "ki_fp_filters" "MountingHole*Pad*" (id 6) (at 0 0 0)
        (effects (font (size 1.27 1.27)) hide)
      )
      (symbol "MountingHole_Pad_0_1"
        (circle (center 0 1.27) (radius 1.27)
          (stroke (width 1.27) (type default) (color 0 0 0 0))
          (fill (type none))
        )
      )
      (symbol "MountingHole_Pad_1_1"
        (pin input line (at 0 -2.54 90) (length 2.54)
          (name "1" (effects (font (size 1.27 1.27))))
          (number "1" (effects (font (size 1.27 1.27))))
        )
      )
    )
    (symbol "Sensor_Temperature:MAX31865xTP" (in_bom yes) (on_board yes)
      (property "Reference" "U" (id 0) (at -11.43 19.05 0)
        (effects (font (size 1.27 1.27)))
      )
      (property "Value" "MAX31865xTP" (id 1) (at 10.16 19.05 0)
        (effects (font (size 1.27 1.27)))
      )
      (property "Footprint" "Package_DFN_QFN:TQFN-20-1EP_5x5mm_P0.65mm_EP3.25x3.25mm" (id 2) (at 3.81 -16.51 0)
        (effects (font (size 1.27 1.27)) (justify left) hide)
      )
      (property "Datasheet" "https://datasheets.maximintegrated.com/en/ds/MAX31865.pdf" (id 3) (at 0 7.62 0)
        (effects (font (size 1.27 1.27)) hide)
      )
      (property "ki_keywords" "RTD SPI Temperature" (id 4) (at 0 0 0)
        (effects (font (size 1.27 1.27)) hide)
      )
      (property "ki_description" "RTD-to-Digital Converter, TQFN-20" (id 5) (at 0 0 0)
        (effects (font (size 1.27 1.27)) hide)
      )
      (property "ki_fp_filters" "TQFN*1EP*5x5mm*P0.65mm*" (id 6) (at 0 0 0)
        (effects (font (size 1.27 1.27)) hide)
      )
      (symbol "MAX31865xTP_0_1"
        (rectangle (start -12.7 17.78) (end 12.7 -15.24)
          (stroke (width 0.254) (type default) (color 0 0 0 0))
          (fill (type background))
        )
      )
      (symbol "MAX31865xTP_1_1"
        (pin power_out line (at 15.24 15.24 180) (length 2.54)
          (name "BIAS" (effects (font (size 1.27 1.27))))
          (number "1" (effects (font (size 1.27 1.27))))
        )
        (pin power_in line (at 2.54 -17.78 90) (length 2.54)
          (name "GND" (effects (font (size 1.27 1.27))))
          (number "10" (effects (font (size 1.27 1.27))))
        )
        (pin input line (at -15.24 12.7 0) (length 2.54)
          (name "SDI" (effects (font (size 1.27 1.27))))
          (number "11" (effects (font (size 1.27 1.27))))
        )
        (pin input line (at -15.24 10.16 0) (length 2.54)
          (name "SCLK" (effects (font (size 1.27 1.27))))
          (number "12" (effects (font (size 1.27 1.27))))
        )
        (pin input line (at -15.24 7.62 0) (length 2.54)
          (name "~{CS}" (effects (font (size 1.27 1.27))))
          (number "13" (effects (font (size 1.27 1.27))))
        )
        (pin tri_state line (at -15.24 5.08 0) (length 2.54)
          (name "SDO" (effects (font (size 1.27 1.27))))
          (number "14" (effects (font (size 1.27 1.27))))
        )
        (pin power_in line (at -2.54 -17.78 90) (length 2.54)
          (name "DGND" (effects (font (size 1.27 1.27))))
          (number "15" (effects (font (size 1.27 1.27))))
        )
        (pin passive line (at 2.54 -17.78 90) (length 2.54) hide
          (name "GND" (effects (font (size 1.27 1.27))))
          (number "16" (effects (font (size 1.27 1.27))))
        )
        (pin no_connect line (at -12.7 -2.54 0) (length 2.54) hide
          (name "NC" (effects (font (size 1.27 1.27))))
          (number "17" (effects (font (size 1.27 1.27))))
        )
        (pin output line (at -15.24 15.24 0) (length 2.54)
          (name "~{DRDY}" (effects (font (size 1.27 1.27))))
          (number "18" (effects (font (size 1.27 1.27))))
        )
        (pin power_in line (at -2.54 20.32 270) (length 2.54)
          (name "DVDD" (effects (font (size 1.27 1.27))))
          (number "19" (effects (font (size 1.27 1.27))))
        )
        (pin input line (at 15.24 12.7 180) (length 2.54)
          (name "REFIN+" (effects (font (size 1.27 1.27))))
          (number "2" (effects (font (size 1.27 1.27))))
        )
        (pin power_in line (at 2.54 20.32 270) (length 2.54)
          (name "VDD" (effects (font (size 1.27 1.27))))
          (number "20" (effects (font (size 1.27 1.27))))
        )
        (pin passive line (at 2.54 -17.78 90) (length 2.54) hide
          (name "GND" (effects (font (size 1.27 1.27))))
          (number "21" (effects (font (size 1.27 1.27))))
        )
        (pin input line (at 15.24 7.62 180) (length 2.54)
          (name "REFIN-" (effects (font (size 1.27 1.27))))
          (number "3" (effects (font (size 1.27 1.27))))
        )
        (pin passive line (at 15.24 5.08 180) (length 2.54)
          (name "ISENSOR" (effects (font (size 1.27 1.27))))
          (number "4" (effects (font (size 1.27 1.27))))
        )
        (pin passive line (at 15.24 0 180) (length 2.54)
          (name "FORCE+" (effects (font (size 1.27 1.27))))
          (number "5" (effects (font (size 1.27 1.27))))
        )
        (pin input line (at 15.24 -2.54 180) (length 2.54)
          (name "FORCE2" (effects (font (size 1.27 1.27))))
          (number "6" (effects (font (size 1.27 1.27))))
        )
        (pin input line (at 15.24 -5.08 180) (length 2.54)
          (name "RTDIN+" (effects (font (size 1.27 1.27))))
          (number "7" (effects (font (size 1.27 1.27))))
        )
        (pin input line (at 15.24 -10.16 180) (length 2.54)
          (name "RTDIN-" (effects (font (size 1.27 1.27))))
          (number "8" (effects (font (size 1.27 1.27))))
        )
        (pin power_out line (at 15.24 -12.7 180) (length 2.54)
          (name "FORCE-" (effects (font (size 1.27 1.27))))
          (number "9" (effects (font (size 1.27 1.27))))
        )
      )
    )
    (symbol "connector:CGH8B" (pin_names (offset 1.016)) (in_bom yes) (on_board yes)
      (property "Reference" "J" (id 0) (at -10.16 3.81 0)
        (effects (font (size 1.27 1.27)) (justify left))
      )
      (property "Value" "CGH8B" (id 1) (at -10.16 1.27 0)
        (effects (font (size 1.27 1.27)) (justify left))
      )
      (property "Footprint" "kicad_pcb:USB_C_Receptacle_HRO_TYPE-C-31-M-12" (id 2) (at -10.16 1.27 0)
        (effects (font (size 1.27 1.27)) (justify left) hide)
      )
      (property "Datasheet" "${PARTS}/CGH8B/TYPE-C-31-M-12.pdf" (id 3) (at -3.81 0 90)
        (effects (font (size 1.27 1.27)) hide)
      )
      (property "ki_description" "USB C connector HRO 16 pin" (id 4) (at 0 0 0)
        (effects (font (size 1.27 1.27)) hide)
      )
      (property "ki_fp_filters" "USB_MINI_B_SM" (id 5) (at 0 0 0)
        (effects (font (size 1.27 1.27)) hide)
      )
      (symbol "CGH8B_0_0"
        (text "USB C" (at -8.89 -21.59 900)
          (effects (font (size 1.27 1.27)))
        )
      )
      (symbol "CGH8B_0_1"
        (rectangle (start 0 0) (end -10.16 -35.56)
          (stroke (width 0) (type default) (color 0 0 0 0))
          (fill (type background))
        )
      )
      (symbol "CGH8B_1_1"
        (pin passive line (at 3.81 -27.94 180) (length 3.81)
          (name "GND" (effects (font (size 1.27 1.27))))
          (number "A1" (effects (font (size 1.27 1.27))))
        )
        (pin passive line (at 3.81 -2.54 180) (length 3.81)
          (name "VBUS" (effects (font (size 1.27 1.27))))
          (number "A4" (effects (font (size 1.27 1.27))))
        )
        (pin passive line (at 3.81 -17.78 180) (length 3.81)
          (name "CC1" (effects (font (size 1.27 1.27))))
          (number "A5" (effects (font (size 1.27 1.27))))
        )
        (pin bidirectional line (at 3.81 -15.24 180) (length 3.81)
          (name "D+" (effects (font (size 1.27 1.27))))
          (number "A6" (effects (font (size 1.27 1.27))))
        )
        (pin bidirectional line (at 3.81 -10.16 180) (length 3.81)
          (name "D-" (effects (font (size 1.27 1.27))))
          (number "A7" (effects (font (size 1.27 1.27))))
        )
        (pin passive line (at 3.81 -22.86 180) (length 3.81)
          (name "SBU1" (effects (font (size 1.27 1.27))))
          (number "A8" (effects (font (size 1.27 1.27))))
        )
        (pin passive line (at 3.81 -30.48 180) (length 3.81)
          (name "GND" (effects (font (size 1.27 1.27))))
          (number "B1" (effects (font (size 1.27 1.27))))
        )
        (pin passive line (at 3.81 -5.08 180) (length 3.81)
          (name "VBUS" (effects (font (size 1.27 1.27))))
          (number "B4" (effects (font (size 1.27 1.27))))
        )
        (pin passive line (at 3.81 -20.32 180) (length 3.81)
          (name "CC2" (effects (font (size 1.27 1.27))))
          (number "B5" (effects (font (size 1.27 1.27))))
        )
        (pin bidirectional line (at 3.81 -12.7 180) (length 3.81)
          (name "D+" (effects (font (size 1.27 1.27))))
          (number "B6" (effects (font (size 1.27 1.27))))
        )
        (pin bidirectional line (at 3.81 -7.62 180) (length 3.81)
          (name "D-" (effects (font (size 1.27 1.27))))
          (number "B7" (effects (font (size 1.27 1.27))))
        )
        (pin passive line (at 3.81 -25.4 180) (length 3.81)
          (name "SBU2" (effects (font (size 1.27 1.27))))
          (number "B8" (effects (font (size 1.27 1.27))))
        )
        (pin passive line (at 3.81 -33.02 180) (length 3.81)
          (name "Shield" (effects (font (size 1.27 1.27))))
          (number "S1" (effects (font (size 1.27 1.27))))
        )
      )
    )
    (symbol "ic:DR2TQ" (pin_names (offset 1.016)) (in_bom yes) (on_board yes)
      (property "Reference" "U" (id 0) (at 0 1.27 0)
        (effects (font (size 1.27 1.27)) (justify left))
      )
      (property "Value" "DR2TQ" (id 1) (at 20.32 1.27 0)
        (effects (font (size 1.27 1.27)) (justify right))
      )
      (property "Footprint" "kicad_pcb:DFN-6-1EP_2x2mm_P0.65mm_EP1x1.6mm" (id 2) (at 7.62 1.27 0)
        (effects (font (size 1.27 1.27)) (justify left) hide)
      )
      (property "Datasheet" "${PARTS}/TTGT9/lp5912.pdf" (id 3) (at 6.35 0 90)
        (effects (font (size 1.27 1.27)) hide)
      )
      (property "ki_description" "LP5912-3.3DRV 3.3 V 500 mA low noise LDO" (id 4) (at 0 0 0)
        (effects (font (size 1.27 1.27)) hide)
      )
      (symbol "DR2TQ_0_1"
        (rectangle (start 0 0) (end 15.24 -10.16)
          (stroke (width 0) (type default) (color 0 0 0 0))
          (fill (type background))
        )
      )
      (symbol "DR2TQ_1_1"
        (pin power_out line (at 17.78 -2.54 180) (length 2.54)
          (name "VOUT" (effects (font (size 1.27 1.27))))
          (number "1" (effects (font (size 1.27 1.27))))
        )
        (pin power_in line (at 5.08 -12.7 90) (length 2.54)
          (name "GND" (effects (font (size 1.27 1.27))))
          (number "2" (effects (font (size 1.27 1.27))))
        )
        (pin power_in line (at 7.62 -12.7 90) (length 2.54)
          (name "GND" (effects (font (size 1.27 1.27))))
          (number "3" (effects (font (size 1.27 1.27))))
        )
        (pin input line (at -2.54 -7.62 0) (length 2.54)
          (name "EN" (effects (font (size 1.27 1.27))))
          (number "4" (effects (font (size 1.27 1.27))))
        )
        (pin power_in line (at 10.16 -12.7 90) (length 2.54)
          (name "GND" (effects (font (size 1.27 1.27))))
          (number "5" (effects (font (size 1.27 1.27))))
        )
        (pin power_in line (at -2.54 -2.54 0) (length 2.54)
          (name "VIN" (effects (font (size 1.27 1.27))))
          (number "6" (effects (font (size 1.27 1.27))))
        )
        (pin power_in line (at 12.7 -12.7 90) (length 2.54)
          (name "GND" (effects (font (size 1.27 1.27))))
          (number "7" (effects (font (size 1.27 1.27))))
        )
      )
    )
    (symbol "misc:ESP32-C2-WROOM-02" (in_bom yes) (on_board yes)
      (property "Reference" "U" (id 0) (at -7.62 13.97 0)
        (effects (font (size 1.27 1.27)))
      )
      (property "Value" "ESP32-C2-WROOM-02" (id 1) (at 10.16 13.97 0)
        (effects (font (size 1.27 1.27)))
      )
      (property "Footprint" "RF_Module:ESP-WROOM-02" (id 2) (at 15.24 -13.97 0)
        (effects (font (size 1.27 1.27)) hide)
      )
      (property "Datasheet" "https://www.espressif.com/sites/default/files/documentation/esp32-c3-wroom-02_datasheet_en.pdf" (id 3) (at 1.27 38.1 0)
        (effects (font (size 1.27 1.27)) hide)
      )
      (property "ki_keywords" "RF Radio ESP Espressif" (id 4) (at 0 0 0)
        (effects (font (size 1.27 1.27)) hide)
      )
      (property "ki_description" "Wi-Fi Module, ESP32-C3 SoC, 32-bit, 802.11b/g/n, WPA/WPA2, 2.7-3.6V, SMD" (id 5) (at 0 0 0)
        (effects (font (size 1.27 1.27)) hide)
      )
      (property "ki_fp_filters" "ESP?WROOM?02*" (id 6) (at 0 0 0)
        (effects (font (size 1.27 1.27)) hide)
      )
      (symbol "ESP32-C2-WROOM-02_0_1"
        (rectangle (start -10.16 15.24) (end 10.16 -15.24)
          (stroke (width 0.254) (type default) (color 0 0 0 0))
          (fill (type background))
        )
      )
      (symbol "ESP32-C2-WROOM-02_1_1"
        (pin power_in line (at 0 17.78 270) (length 2.54)
          (name "VDD" (effects (font (size 1.27 1.27))))
          (number "1" (effects (font (size 1.27 1.27))))
        )
        (pin bidirectional line (at 12.7 -12.7 180) (length 2.54)
          (name "IO10" (effects (font (size 1.27 1.27))))
          (number "10" (effects (font (size 1.27 1.27))))
        )
        (pin bidirectional line (at -12.7 -7.62 0) (length 2.54)
          (name "IO20/RXD" (effects (font (size 1.27 1.27))))
          (number "11" (effects (font (size 1.27 1.27))))
        )
        (pin bidirectional line (at -12.7 -10.16 0) (length 2.54)
          (name "IO21/TXD" (effects (font (size 1.27 1.27))))
          (number "12" (effects (font (size 1.27 1.27))))
        )
        (pin bidirectional line (at -12.7 2.54 0) (length 2.54)
          (name "IO18/USB_D-" (effects (font (size 1.27 1.27))))
          (number "13" (effects (font (size 1.27 1.27))))
        )
        (pin bidirectional line (at -12.7 0 0) (length 2.54)
          (name "IO19/USB_D+" (effects (font (size 1.27 1.27))))
          (number "14" (effects (font (size 1.27 1.27))))
        )
        (pin bidirectional line (at 12.7 5.08 180) (length 2.54)
          (name "IO3" (effects (font (size 1.27 1.27))))
          (number "15" (effects (font (size 1.27 1.27))))
        )
        (pin bidirectional line (at 12.7 7.62 180) (length 2.54)
          (name "IO2" (effects (font (size 1.27 1.27))))
          (number "16" (effects (font (size 1.27 1.27))))
        )
        (pin bidirectional line (at 12.7 10.16 180) (length 2.54)
          (name "IO1" (effects (font (size 1.27 1.27))))
          (number "17" (effects (font (size 1.27 1.27))))
        )
        (pin bidirectional line (at 12.7 12.7 180) (length 2.54)
          (name "IO0" (effects (font (size 1.27 1.27))))
          (number "18" (effects (font (size 1.27 1.27))))
        )
        (pin power_in line (at 0 -17.78 90) (length 2.54) hide
          (name "GND" (effects (font (size 1.27 1.27))))
          (number "19" (effects (font (size 1.27 1.27))))
        )
        (pin input line (at -12.7 10.16 0) (length 2.54)
          (name "EN" (effects (font (size 1.27 1.27))))
          (number "2" (effects (font (size 1.27 1.27))))
        )
        (pin bidirectional line (at 12.7 2.54 180) (length 2.54)
          (name "IO4" (effects (font (size 1.27 1.27))))
          (number "3" (effects (font (size 1.27 1.27))))
        )
        (pin bidirectional line (at 12.7 0 180) (length 2.54)
          (name "IO5" (effects (font (size 1.27 1.27))))
          (number "4" (effects (font (size 1.27 1.27))))
        )
        (pin bidirectional line (at 12.7 -2.54 180) (length 2.54)
          (name "IO6" (effects (font (size 1.27 1.27))))
          (number "5" (effects (font (size 1.27 1.27))))
        )
        (pin bidirectional line (at 12.7 -5.08 180) (length 2.54)
          (name "IO7" (effects (font (size 1.27 1.27))))
          (number "6" (effects (font (size 1.27 1.27))))
        )
        (pin bidirectional line (at 12.7 -7.62 180) (length 2.54)
          (name "IO8" (effects (font (size 1.27 1.27))))
          (number "7" (effects (font (size 1.27 1.27))))
        )
        (pin bidirectional line (at 12.7 -10.16 180) (length 2.54)
          (name "IO9" (effects (font (size 1.27 1.27))))
          (number "8" (effects (font (size 1.27 1.27))))
        )
        (pin power_in line (at 0 -17.78 90) (length 2.54)
          (name "GND" (effects (font (size 1.27 1.27))))
          (number "9" (effects (font (size 1.27 1.27))))
        )
      )
    )
    (symbol "misc:tooling_hole" (pin_numbers hide) (pin_names (offset 1.016) hide) (in_bom yes) (on_board yes)
      (property "Reference" "TH" (id 0) (at 2.54 0 0)
        (effects (font (size 1.27 1.27)) (justify left))
      )
      (property "Value" "tooling_hole" (id 1) (at 3.81 0 0)
        (effects (font (size 1.27 1.27)) (justify left) hide)
      )
      (property "Footprint" "kicad_pcb:tooling_hole_2.55" (id 2) (at 3.81 2.54 0)
        (effects (font (size 1.27 1.27)) (justify left) hide)
      )
      (property "Datasheet" "" (id 3) (at 5.08 5.08 90)
        (effects (font (size 1.27 1.27)) hide)
      )
      (property "ki_description" "Tooling hole for stencil alignment" (id 4) (at 0 0 0)
        (effects (font (size 1.27 1.27)) hide)
      )
      (symbol "tooling_hole_0_0"
        (circle (center 0 0) (radius 1.27)
          (stroke (width 0) (type default) (color 0 0 0 0))
          (fill (type none))
        )
      )
    )
    (symbol "power:+3V3" (power) (pin_names (offset 0)) (in_bom yes) (on_board yes)
      (property "Reference" "#PWR" (id 0) (at 0 -3.81 0)
        (effects (font (size 1.27 1.27)) hide)
      )
      (property "Value" "+3V3" (id 1) (at 0 3.556 0)
        (effects (font (size 1.27 1.27)))
      )
      (property "Footprint" "" (id 2) (at 0 0 0)
        (effects (font (size 1.27 1.27)) hide)
      )
      (property "Datasheet" "" (id 3) (at 0 0 0)
        (effects (font (size 1.27 1.27)) hide)
      )
      (property "ki_keywords" "power-flag" (id 4) (at 0 0 0)
        (effects (font (size 1.27 1.27)) hide)
      )
      (property "ki_description" "Power symbol creates a global label with name \"+3V3\"" (id 5) (at 0 0 0)
        (effects (font (size 1.27 1.27)) hide)
      )
      (symbol "+3V3_0_1"
        (polyline
          (pts
            (xy -0.762 1.27)
            (xy 0 2.54)
          )
          (stroke (width 0) (type default) (color 0 0 0 0))
          (fill (type none))
        )
        (polyline
          (pts
            (xy 0 0)
            (xy 0 2.54)
          )
          (stroke (width 0) (type default) (color 0 0 0 0))
          (fill (type none))
        )
        (polyline
          (pts
            (xy 0 2.54)
            (xy 0.762 1.27)
          )
          (stroke (width 0) (type default) (color 0 0 0 0))
          (fill (type none))
        )
      )
      (symbol "+3V3_1_1"
        (pin power_in line (at 0 0 90) (length 0) hide
          (name "+3V3" (effects (font (size 1.27 1.27))))
          (number "1" (effects (font (size 1.27 1.27))))
        )
      )
    )
    (symbol "power:GND" (power) (pin_names (offset 0)) (in_bom yes) (on_board yes)
      (property "Reference" "#PWR" (id 0) (at 0 -6.35 0)
        (effects (font (size 1.27 1.27)) hide)
      )
      (property "Value" "GND" (id 1) (at 0 -3.81 0)
        (effects (font (size 1.27 1.27)))
      )
      (property "Footprint" "" (id 2) (at 0 0 0)
        (effects (font (size 1.27 1.27)) hide)
      )
      (property "Datasheet" "" (id 3) (at 0 0 0)
        (effects (font (size 1.27 1.27)) hide)
      )
      (property "ki_keywords" "power-flag" (id 4) (at 0 0 0)
        (effects (font (size 1.27 1.27)) hide)
      )
      (property "ki_description" "Power symbol creates a global label with name \"GND\" , ground" (id 5) (at 0 0 0)
        (effects (font (size 1.27 1.27)) hide)
      )
      (symbol "GND_0_1"
        (polyline
          (pts
            (xy 0 0)
            (xy 0 -1.27)
            (xy 1.27 -1.27)
            (xy 0 -2.54)
            (xy -1.27 -1.27)
            (xy 0 -1.27)
          )
          (stroke (width 0) (type default) (color 0 0 0 0))
          (fill (type none))
        )
      )
      (symbol "GND_1_1"
        (pin power_in line (at 0 0 270) (length 0) hide
          (name "GND" (effects (font (size 1.27 1.27))))
          (number "1" (effects (font (size 1.27 1.27))))
        )
      )
    )
  )

  (junction (at 69.85 87.63) (diameter 0) (color 0 0 0 0)
    (uuid 16a9ae8c-3ad2-439b-8efe-377c994670c7)
  )
  (junction (at 113.03 138.43) (diameter 0) (color 0 0 0 0)
    (uuid 32a273fa-2a6a-4344-98da-2b26f00f7143)
  )
  (junction (at 138.43 161.29) (diameter 0) (color 0 0 0 0)
    (uuid 62bceb15-921e-4faa-8550-d497334ff6ba)
  )
  (junction (at 69.85 85.09) (diameter 0) (color 0 0 0 0)
    (uuid 770ad51a-7219-4633-b24a-bd20feb0a6c5)
  )
  (junction (at 138.43 168.91) (diameter 0) (color 0 0 0 0)
    (uuid 7c7e523f-9fdf-4d1b-9376-eb02c2f2c676)
  )
  (junction (at 100.33 80.01) (diameter 0) (color 0 0 0 0)
    (uuid 83afe73b-ed8c-4224-96b3-c6a60fd85c5c)
  )
  (junction (at 130.81 143.51) (diameter 0) (color 0 0 0 0)
    (uuid 8a7693b0-b179-4471-846d-ba18aa7aaa47)
  )
  (junction (at 105.41 80.01) (diameter 0) (color 0 0 0 0)
    (uuid 8abef4e4-751c-40f7-91b1-7cff86457cb8)
  )
  (junction (at 130.81 153.67) (diameter 0) (color 0 0 0 0)
    (uuid 93fd4f04-49ea-435a-b70c-032f4f90c09f)
  )
  (junction (at 69.85 77.47) (diameter 0) (color 0 0 0 0)
    (uuid b7199d9b-bebb-4100-9ad3-c2bd31e21d65)
  )
  (junction (at 69.85 69.85) (diameter 0) (color 0 0 0 0)
    (uuid bd205ad9-d01d-49f8-9fa7-88d1a22abd12)
  )
  (junction (at 124.46 72.39) (diameter 0) (color 0 0 0 0)
    (uuid cb24efdd-07c6-4317-9277-131625b065ac)
  )
  (junction (at 69.85 105.41) (diameter 0) (color 0 0 0 0)
    (uuid db36f6e3-e72a-487f-bda9-88cc84536f62)
  )
  (junction (at 69.85 107.95) (diameter 0) (color 0 0 0 0)
    (uuid e4c6fdbb-fdc7-4ad4-a516-240d84cdc120)
  )
  (junction (at 78.74 69.85) (diameter 0) (color 0 0 0 0)
    (uuid e6b860cc-cb76-4220-acfb-68f1eb348bfa)
  )
  (junction (at 90.17 69.85) (diameter 0) (color 0 0 0 0)
    (uuid e8a60c2f-2ef2-4f7e-bdb5-1b9915a19be9)
  )
  (junction (at 102.87 80.01) (diameter 0) (color 0 0 0 0)
    (uuid eb66a66e-3ab4-453b-b04b-b71fe7e64165)
  )
  (junction (at 118.11 176.53) (diameter 0) (color 0 0 0 0)
    (uuid f3b067bc-3e91-43ec-a7c0-3dec99e80e80)
  )

  (no_connect (at 100.33 143.51) (uuid 3d8d5b50-3cf1-4cc6-97b6-c36e1fb54ab6))
  (no_connect (at 162.56 74.93) (uuid 457d7621-9db2-4580-a4f9-f2babe348603))
  (no_connect (at 162.56 85.09) (uuid a0790c31-5da4-4eee-b20f-7433aaee5917))
  (no_connect (at 68.58 97.79) (uuid b5b73dee-6ef5-4fd7-ac8a-ab4403f902da))
  (no_connect (at 68.58 100.33) (uuid b5b73dee-6ef5-4fd7-ac8a-ab4403f902db))
  (no_connect (at 162.56 87.63) (uuid e77048ac-e26d-4dc1-9ed3-e7c666eecaa8))
  (no_connect (at 162.56 90.17) (uuid e77048ac-e26d-4dc1-9ed3-e7c666eecaa9))
  (no_connect (at 162.56 92.71) (uuid e77048ac-e26d-4dc1-9ed3-e7c666eecaaa))

  (wire (pts (xy 113.03 138.43) (xy 118.11 138.43))
    (stroke (width 0) (type default) (color 0 0 0 0))
    (uuid 08a7abc5-19d5-42d9-b9d6-f471d9310579)
  )
  (wire (pts (xy 68.58 95.25) (xy 74.93 95.25))
    (stroke (width 0) (type solid) (color 0 0 0 0))
    (uuid 1876f926-9b52-487b-a970-21b164f313a9)
  )
  (wire (pts (xy 74.93 97.79) (xy 74.93 95.25))
    (stroke (width 0) (type solid) (color 0 0 0 0))
    (uuid 1876f926-9b52-487b-a970-21b164f313aa)
  )
  (wire (pts (xy 134.62 163.83) (xy 134.62 161.29))
    (stroke (width 0) (type default) (color 0 0 0 0))
    (uuid 1a14ba25-05f6-4a91-964c-3f3965fe3357)
  )
  (wire (pts (xy 100.33 80.01) (xy 102.87 80.01))
    (stroke (width 0) (type default) (color 0 0 0 0))
    (uuid 1e86fe53-5963-4186-a262-90cbc51faecb)
  )
  (wire (pts (xy 83.82 92.71) (xy 68.58 92.71))
    (stroke (width 0) (type solid) (color 0 0 0 0))
    (uuid 1fd5755c-6e20-4238-bd1a-1baf6865a37c)
  )
  (wire (pts (xy 83.82 97.79) (xy 83.82 92.71))
    (stroke (width 0) (type solid) (color 0 0 0 0))
    (uuid 1fd5755c-6e20-4238-bd1a-1baf6865a37d)
  )
  (wire (pts (xy 149.86 162.56) (xy 162.56 162.56))
    (stroke (width 0) (type default) (color 0 0 0 0))
    (uuid 20508885-6157-4f9d-bc73-ecb188513e7c)
  )
  (wire (pts (xy 186.69 68.58) (xy 186.69 95.25))
    (stroke (width 0) (type default) (color 0 0 0 0))
    (uuid 20ead681-a26f-4aa4-896c-4fc4f4f653fd)
  )
  (wire (pts (xy 149.86 171.45) (xy 130.81 171.45))
    (stroke (width 0) (type default) (color 0 0 0 0))
    (uuid 261f758b-404a-4c00-80a2-6d617577dd9b)
  )
  (wire (pts (xy 149.86 170.18) (xy 162.56 170.18))
    (stroke (width 0) (type default) (color 0 0 0 0))
    (uuid 2a28053c-8fa9-42b3-88ed-ea68cb90fbfc)
  )
  (wire (pts (xy 134.62 152.4) (xy 134.62 153.67))
    (stroke (width 0) (type default) (color 0 0 0 0))
    (uuid 2c873a99-f82e-42a6-be1f-1f3f1208317c)
  )
  (wire (pts (xy 168.91 77.47) (xy 162.56 77.47))
    (stroke (width 0) (type solid) (color 0 0 0 0))
    (uuid 35901ce9-5033-4e30-ae0f-c644f56c2e91)
  )
  (wire (pts (xy 149.86 167.64) (xy 162.56 167.64))
    (stroke (width 0) (type default) (color 0 0 0 0))
    (uuid 36e12888-6e35-4c95-8a6d-607194274ed7)
  )
  (wire (pts (xy 68.58 80.01) (xy 69.85 80.01))
    (stroke (width 0) (type solid) (color 0 0 0 0))
    (uuid 37b07dfb-3c5d-446b-971f-ba8b2ec92c55)
  )
  (wire (pts (xy 69.85 77.47) (xy 68.58 77.47))
    (stroke (width 0) (type solid) (color 0 0 0 0))
    (uuid 37b07dfb-3c5d-446b-971f-ba8b2ec92c56)
  )
  (wire (pts (xy 69.85 80.01) (xy 69.85 77.47))
    (stroke (width 0) (type solid) (color 0 0 0 0))
    (uuid 37b07dfb-3c5d-446b-971f-ba8b2ec92c57)
  )
  (wire (pts (xy 162.56 97.79) (xy 176.53 97.79))
    (stroke (width 0) (type solid) (color 0 0 0 0))
    (uuid 37bf7510-8370-42e8-a459-7ac740759fd3)
  )
  (wire (pts (xy 176.53 97.79) (xy 176.53 102.87))
    (stroke (width 0) (type solid) (color 0 0 0 0))
    (uuid 37bf7510-8370-42e8-a459-7ac740759fd4)
  )
  (wire (pts (xy 69.85 87.63) (xy 137.16 87.63))
    (stroke (width 0) (type solid) (color 0 0 0 0))
    (uuid 3e6e09a0-fc58-483b-9154-95ccb7a92d57)
  )
  (wire (pts (xy 149.86 168.91) (xy 138.43 168.91))
    (stroke (width 0) (type default) (color 0 0 0 0))
    (uuid 41a6520d-91b0-4da0-8511-376337fc8a92)
  )
  (wire (pts (xy 113.03 176.53) (xy 118.11 176.53))
    (stroke (width 0) (type default) (color 0 0 0 0))
    (uuid 43270032-ca16-4ac4-bf75-92b74fb384e4)
  )
  (wire (pts (xy 63.5 53.34) (xy 69.85 53.34))
    (stroke (width 0) (type default) (color 0 0 0 0))
    (uuid 446636c7-b482-441d-bd68-501c5fe278e5)
  )
  (wire (pts (xy 149.86 158.75) (xy 149.86 162.56))
    (stroke (width 0) (type default) (color 0 0 0 0))
    (uuid 492cd1a9-4a0d-4e59-a2be-bb74511cf978)
  )
  (wire (pts (xy 92.71 146.05) (xy 100.33 146.05))
    (stroke (width 0) (type default) (color 0 0 0 0))
    (uuid 49d38825-5ce7-49a4-852c-00bff6f85258)
  )
  (wire (pts (xy 97.79 80.01) (xy 100.33 80.01))
    (stroke (width 0) (type default) (color 0 0 0 0))
    (uuid 4b55a894-9a6b-41e9-a624-c81daba9b7ce)
  )
  (wire (pts (xy 130.81 168.91) (xy 138.43 168.91))
    (stroke (width 0) (type default) (color 0 0 0 0))
    (uuid 4cff1792-df5f-4db0-9891-7aa27f7932f4)
  )
  (wire (pts (xy 162.56 80.01) (xy 177.8 80.01))
    (stroke (width 0) (type solid) (color 0 0 0 0))
    (uuid 5e0d349c-56f5-4ee7-bc00-d12c1f5f5a90)
  )
  (wire (pts (xy 177.8 78.74) (xy 177.8 80.01))
    (stroke (width 0) (type solid) (color 0 0 0 0))
    (uuid 5e0d349c-56f5-4ee7-bc00-d12c1f5f5a91)
  )
  (wire (pts (xy 146.05 165.1) (xy 162.56 165.1))
    (stroke (width 0) (type default) (color 0 0 0 0))
    (uuid 6b20502f-3aab-4006-a52e-cb2347548246)
  )
  (wire (pts (xy 146.05 161.29) (xy 138.43 161.29))
    (stroke (width 0) (type default) (color 0 0 0 0))
    (uuid 7077b461-ad03-48a9-8418-6ed725d4c8d3)
  )
  (wire (pts (xy 92.71 153.67) (xy 100.33 153.67))
    (stroke (width 0) (type default) (color 0 0 0 0))
    (uuid 71380fd2-43b8-4801-bd01-235b378e4bdd)
  )
  (wire (pts (xy 130.81 143.51) (xy 134.62 143.51))
    (stroke (width 0) (type default) (color 0 0 0 0))
    (uuid 7301a327-dc24-4f40-b4b4-d474b1c45f87)
  )
  (wire (pts (xy 68.58 85.09) (xy 69.85 85.09))
    (stroke (width 0) (type solid) (color 0 0 0 0))
    (uuid 73e3c960-0992-4f09-b231-d633b8ec111e)
  )
  (wire (pts (xy 69.85 82.55) (xy 68.58 82.55))
    (stroke (width 0) (type solid) (color 0 0 0 0))
    (uuid 73e3c960-0992-4f09-b231-d633b8ec111f)
  )
  (wire (pts (xy 69.85 85.09) (xy 69.85 82.55))
    (stroke (width 0) (type solid) (color 0 0 0 0))
    (uuid 73e3c960-0992-4f09-b231-d633b8ec1120)
  )
  (wire (pts (xy 69.85 85.09) (xy 137.16 85.09))
    (stroke (width 0) (type solid) (color 0 0 0 0))
    (uuid 814ab97b-0ff7-4d90-84ac-f7a43525b800)
  )
  (wire (pts (xy 170.18 82.55) (xy 162.56 82.55))
    (stroke (width 0) (type solid) (color 0 0 0 0))
    (uuid 8369b92e-0d25-4bd7-be69-011ce104989c)
  )
  (wire (pts (xy 92.71 151.13) (xy 100.33 151.13))
    (stroke (width 0) (type solid) (color 0 0 0 0))
    (uuid 8cba582a-1f01-4c80-bd9f-cd8c18501f48)
  )
  (wire (pts (xy 134.62 161.29) (xy 138.43 161.29))
    (stroke (width 0) (type default) (color 0 0 0 0))
    (uuid 8d7e40bc-6871-44c2-8b94-430c512fad67)
  )
  (wire (pts (xy 134.62 153.67) (xy 130.81 153.67))
    (stroke (width 0) (type default) (color 0 0 0 0))
    (uuid 92757257-281b-4f72-909f-500f80bedc8a)
  )
  (wire (pts (xy 69.85 69.85) (xy 69.85 77.47))
    (stroke (width 0) (type solid) (color 0 0 0 0))
    (uuid 93ed68ac-b871-4262-9376-b95b82a9dc86)
  )
  (wire (pts (xy 69.85 69.85) (xy 78.74 69.85))
    (stroke (width 0) (type solid) (color 0 0 0 0))
    (uuid 93ed68ac-b871-4262-9376-b95b82a9dc87)
  )
  (wire (pts (xy 78.74 69.85) (xy 90.17 69.85))
    (stroke (width 0) (type solid) (color 0 0 0 0))
    (uuid 93ed68ac-b871-4262-9376-b95b82a9dc88)
  )
  (wire (pts (xy 63.5 55.88) (xy 63.5 57.15))
    (stroke (width 0) (type default) (color 0 0 0 0))
    (uuid 9a3b5ee4-5362-4f51-8481-631e1cf54742)
  )
  (wire (pts (xy 68.58 87.63) (xy 69.85 87.63))
    (stroke (width 0) (type solid) (color 0 0 0 0))
    (uuid 9dac010f-bdfc-4569-959d-461ebe069e29)
  )
  (wire (pts (xy 69.85 87.63) (xy 69.85 90.17))
    (stroke (width 0) (type solid) (color 0 0 0 0))
    (uuid 9dac010f-bdfc-4569-959d-461ebe069e2a)
  )
  (wire (pts (xy 69.85 90.17) (xy 68.58 90.17))
    (stroke (width 0) (type solid) (color 0 0 0 0))
    (uuid 9dac010f-bdfc-4569-959d-461ebe069e2b)
  )
  (wire (pts (xy 162.56 95.25) (xy 186.69 95.25))
    (stroke (width 0) (type solid) (color 0 0 0 0))
    (uuid 9e1b47cc-b1c3-455c-a0ea-903672690276)
  )
  (wire (pts (xy 92.71 148.59) (xy 100.33 148.59))
    (stroke (width 0) (type default) (color 0 0 0 0))
    (uuid afbfcdbe-6cea-4cc3-a17e-200d4fc07843)
  )
  (wire (pts (xy 149.86 167.64) (xy 149.86 168.91))
    (stroke (width 0) (type default) (color 0 0 0 0))
    (uuid b17131ea-52fa-45a4-8054-37ce0e1beaea)
  )
  (wire (pts (xy 170.18 100.33) (xy 162.56 100.33))
    (stroke (width 0) (type solid) (color 0 0 0 0))
    (uuid b42c774b-0d68-4610-bd9d-920f0c87b4b4)
  )
  (wire (pts (xy 146.05 165.1) (xy 146.05 161.29))
    (stroke (width 0) (type default) (color 0 0 0 0))
    (uuid b639b326-2afe-467d-bc04-bae222454b53)
  )
  (wire (pts (xy 115.57 97.79) (xy 137.16 97.79))
    (stroke (width 0) (type solid) (color 0 0 0 0))
    (uuid b7137623-e220-4991-9f1d-a807cb257c8e)
  )
  (wire (pts (xy 130.81 151.13) (xy 130.81 153.67))
    (stroke (width 0) (type default) (color 0 0 0 0))
    (uuid b8877a17-c35b-44df-a390-e81d81a26fc7)
  )
  (wire (pts (xy 130.81 163.83) (xy 134.62 163.83))
    (stroke (width 0) (type default) (color 0 0 0 0))
    (uuid b9fe6d6e-4aa3-4c38-b911-e79e851308e2)
  )
  (wire (pts (xy 69.85 53.34) (xy 69.85 69.85))
    (stroke (width 0) (type default) (color 0 0 0 0))
    (uuid bbed3377-e999-412d-a5fd-ace793a555fa)
  )
  (wire (pts (xy 69.85 102.87) (xy 68.58 102.87))
    (stroke (width 0) (type solid) (color 0 0 0 0))
    (uuid c18605e4-6b45-495a-bb68-388b10d46fc5)
  )
  (wire (pts (xy 69.85 105.41) (xy 69.85 102.87))
    (stroke (width 0) (type solid) (color 0 0 0 0))
    (uuid c18605e4-6b45-495a-bb68-388b10d46fc6)
  )
  (wire (pts (xy 69.85 107.95) (xy 69.85 105.41))
    (stroke (width 0) (type solid) (color 0 0 0 0))
    (uuid c18605e4-6b45-495a-bb68-388b10d46fc7)
  )
  (wire (pts (xy 69.85 109.22) (xy 69.85 107.95))
    (stroke (width 0) (type solid) (color 0 0 0 0))
    (uuid c18605e4-6b45-495a-bb68-388b10d46fc8)
  )
  (wire (pts (xy 134.62 72.39) (xy 124.46 72.39))
    (stroke (width 0) (type solid) (color 0 0 0 0))
    (uuid c3c11d89-70ea-4dd1-8a7b-154bfdb6976a)
  )
  (wire (pts (xy 134.62 77.47) (xy 134.62 72.39))
    (stroke (width 0) (type solid) (color 0 0 0 0))
    (uuid c3c11d89-70ea-4dd1-8a7b-154bfdb6976b)
  )
  (wire (pts (xy 137.16 77.47) (xy 134.62 77.47))
    (stroke (width 0) (type solid) (color 0 0 0 0))
    (uuid c3c11d89-70ea-4dd1-8a7b-154bfdb6976c)
  )
  (wire (pts (xy 90.17 69.85) (xy 90.17 74.93))
    (stroke (width 0) (type solid) (color 0 0 0 0))
    (uuid c98e21eb-3d7c-4561-9e29-1b13c9eb8f5d)
  )
  (wire (pts (xy 110.49 69.85) (xy 114.3 69.85))
    (stroke (width 0) (type solid) (color 0 0 0 0))
    (uuid cb0318d3-898c-4d0f-8360-fceeee05808c)
  )
  (wire (pts (xy 114.3 67.31) (xy 114.3 69.85))
    (stroke (width 0) (type solid) (color 0 0 0 0))
    (uuid cb0318d3-898c-4d0f-8360-fceeee05808d)
  )
  (wire (pts (xy 134.62 144.78) (xy 134.62 143.51))
    (stroke (width 0) (type default) (color 0 0 0 0))
    (uuid d0e41c41-4149-4e27-b432-0f67c4bcd7a3)
  )
  (wire (pts (xy 130.81 143.51) (xy 130.81 146.05))
    (stroke (width 0) (type default) (color 0 0 0 0))
    (uuid d308ceb6-4388-401f-b8a8-50144f16b203)
  )
  (wire (pts (xy 102.87 80.01) (xy 105.41 80.01))
    (stroke (width 0) (type default) (color 0 0 0 0))
    (uuid dbebd7db-f299-4b42-af18-885ca04671b9)
  )
  (wire (pts (xy 68.58 107.95) (xy 69.85 107.95))
    (stroke (width 0) (type solid) (color 0 0 0 0))
    (uuid e212a8d4-5f17-4c0f-8ffb-e6427dd27e6d)
  )
  (wire (pts (xy 130.81 158.75) (xy 149.86 158.75))
    (stroke (width 0) (type default) (color 0 0 0 0))
    (uuid f3cceb96-c4d8-4fcd-8360-97c3f9ad128b)
  )
  (wire (pts (xy 149.86 170.18) (xy 149.86 171.45))
    (stroke (width 0) (type default) (color 0 0 0 0))
    (uuid f405844c-cb44-43f8-9845-e7c30547758a)
  )
  (wire (pts (xy 68.58 105.41) (xy 69.85 105.41))
    (stroke (width 0) (type solid) (color 0 0 0 0))
    (uuid ff005528-6943-4b72-829d-4a71050b50fe)
  )

  (text "Populate one of these" (at 91.44 83.82 0)
    (effects (font (size 1.27 1.27)) (justify left bottom))
    (uuid 042b5996-c3d5-409f-9c85-38e3b60c0df8)
  )
  (text "Hold while plugging\nUSB to force into\nbootloader" (at 180.34 118.11 0)
    (effects (font (size 1.27 1.27)) (justify left bottom))
    (uuid 4c0d8f16-991c-4f78-a8fa-0b8b6c7738ee)
  )

  (label "EN" (at 132.08 72.39 0)
    (effects (font (size 1.27 1.27)) (justify left bottom))
    (uuid 1b0ba8dc-349b-4a26-a8d5-2313d47d24fc)
  )
  (label "SCK" (at 92.71 148.59 0)
    (effects (font (size 1.27 1.27)) (justify left bottom))
    (uuid 364ba794-cb11-4140-a65d-2d0a444a262a)
  )
  (label "CC1" (at 69.85 92.71 0)
    (effects (font (size 1.27 1.27)) (justify left bottom))
    (uuid 36ba605e-5715-49b4-8b8d-f7a99512520e)
  )
  (label "TX_DEBUG" (at 125.73 97.79 0)
    (effects (font (size 1.27 1.27)) (justify left bottom))
    (uuid 4059b7b9-18a0-4e36-a209-438101b100f3)
  )
  (label "D-" (at 76.2 85.09 0)
    (effects (font (size 1.27 1.27)) (justify left bottom))
    (uuid 412025f7-4512-4e92-a0c2-0dcc565219b4)
  )
  (label "IO8" (at 170.18 95.25 180)
    (effects (font (size 1.27 1.27)) (justify right bottom))
    (uuid 5caca0cd-1438-44e0-9af6-16034af678ab)
  )
  (label "FORCE-" (at 153.67 170.18 0)
    (effects (font (size 1.27 1.27)) (justify left bottom))
    (uuid 5f4ede81-eb5c-4446-8e8c-e1ef9f22cc3e)
  )
  (label "SCK" (at 170.18 82.55 180)
    (effects (font (size 1.27 1.27)) (justify right bottom))
    (uuid 7055ec36-9441-4371-94bb-034a1a04b91f)
  )
  (label "COPI" (at 92.71 146.05 0)
    (effects (font (size 1.27 1.27)) (justify left bottom))
    (uuid 710f0b4c-4bf2-4cd1-8453-b9e6f737728c)
  )
  (label "IO9{slash}BOOTMODE" (at 163.83 97.79 0)
    (effects (font (size 1.27 1.27)) (justify left bottom))
    (uuid 738a8f9d-11e8-4d88-92b2-992fca1b9775)
  )
  (label "COPI" (at 170.18 100.33 180)
    (effects (font (size 1.27 1.27)) (justify right bottom))
    (uuid 74ceecfb-3f99-4511-a5b3-2aca53468402)
  )
  (label "CIPO" (at 92.71 153.67 0)
    (effects (font (size 1.27 1.27)) (justify left bottom))
    (uuid 81d51ee2-0570-4bae-b1db-ce22453a0730)
  )
  (label "RTDIN+" (at 153.67 165.1 0)
    (effects (font (size 1.27 1.27)) (justify left bottom))
    (uuid 8d7a983f-947f-4d2e-b394-08f3c0d49b91)
  )
  (label "~{CS}" (at 166.37 80.01 0)
    (effects (font (size 1.27 1.27)) (justify left bottom))
    (uuid 9b9561d1-3d47-4835-bb11-4f5380156faf)
  )
  (label "~{CS}" (at 92.71 151.13 0)
    (effects (font (size 1.27 1.27)) (justify left bottom))
    (uuid a00e3738-b512-4be7-a724-31a20ff78d5b)
  )
  (label "VBUS" (at 71.12 69.85 0)
    (effects (font (size 1.27 1.27)) (justify left bottom))
    (uuid b8e5e839-9330-43f9-8bce-eb4f1056b020)
  )
  (label "RTDIN-" (at 153.67 167.64 0)
    (effects (font (size 1.27 1.27)) (justify left bottom))
    (uuid c3124319-5806-44bd-8efe-2a0622dd11fc)
  )
  (label "CC2" (at 69.85 95.25 0)
    (effects (font (size 1.27 1.27)) (justify left bottom))
    (uuid c61a4913-3350-4cd6-adb4-9aa5a3077114)
  )
  (label "FORCE+" (at 153.67 162.56 0)
    (effects (font (size 1.27 1.27)) (justify left bottom))
    (uuid c62696b7-13b6-4cac-870e-9ee28435bbb7)
  )
  (label "CIPO" (at 168.91 77.47 180)
    (effects (font (size 1.27 1.27)) (justify right bottom))
    (uuid d4fd2215-d4ee-4c30-a763-51125d68d3c7)
  )
  (label "D+" (at 76.2 87.63 0)
    (effects (font (size 1.27 1.27)) (justify left bottom))
    (uuid f2e39bd4-37eb-42e4-a64f-e90765190e5a)
  )

  (symbol (lib_id "Connector_Generic:Conn_01x04") (at 167.64 165.1 0) (unit 1)
    (in_bom yes) (on_board yes) (fields_autoplaced)
    (uuid 0a2722db-1066-4a48-ab27-9049dff3c585)
    (property "Reference" "J3" (id 0) (at 169.672 165.4615 0)
      (effects (font (size 1.27 1.27)) (justify left))
    )
    (property "Value" "JST_PA4" (id 1) (at 169.672 168.2366 0)
      (effects (font (size 1.27 1.27)) (justify left))
    )
    (property "Footprint" "kicad_pcb:JST_PA_B04B-PASK_1x04_P2.00mm_Vertical" (id 2) (at 167.64 165.1 0)
      (effects (font (size 1.27 1.27)) hide)
    )
    (property "Datasheet" "~" (id 3) (at 167.64 165.1 0)
      (effects (font (size 1.27 1.27)) hide)
    )
    (pin "1" (uuid 5195d3ec-279c-4546-af3c-92345a41d1ec))
    (pin "2" (uuid 7e319697-0ecf-4cfd-9b3b-95dd8b3a7d6d))
    (pin "3" (uuid ba3fd760-9fa1-4ea3-aad8-48d7e53c8e09))
    (pin "4" (uuid 8120a8c2-2c6d-4b96-9073-856a8cbc2502))
  )

  (symbol (lib_id "misc:ESP32-C2-WROOM-02") (at 149.86 87.63 0) (unit 1)
    (in_bom yes) (on_board yes)
    (uuid 0c56e4db-6afe-4992-9445-d64c5412810d)
    (property "Reference" "U1" (id 0) (at 140.97 70.7094 0))
    (property "Value" "ESP32-C2-WROOM-02" (id 1) (at 162.56 70.9445 0))
    (property "Footprint" "kicad_pcb:ESP-WROOM-02" (id 2) (at 165.1 101.6 0)
      (effects (font (size 1.27 1.27)) hide)
    )
    (property "Datasheet" "https://www.espressif.com/sites/default/files/documentation/esp32-c3-wroom-02_datasheet_en.pdf" (id 3) (at 151.13 49.53 0)
      (effects (font (size 1.27 1.27)) hide)
    )
    (pin "1" (uuid d086ab15-0142-4927-be04-c732c42b1dd0))
    (pin "10" (uuid 2307e171-b547-4fdf-bed4-278937ccf04e))
    (pin "11" (uuid 434cea62-ee1c-41e0-a20a-8cc70a7b0e11))
    (pin "12" (uuid c35e0aed-229a-4be8-a795-d1c891e31d0f))
    (pin "13" (uuid 5afe215c-e2f0-455e-8613-ad616efce5e3))
    (pin "14" (uuid f1a3d44e-e1f5-48a3-a441-9445948e097f))
    (pin "15" (uuid dc37a175-5299-4a06-a91d-1e96613beea1))
    (pin "16" (uuid dc9ca41f-cf7d-428a-a4f7-556c909bd0cd))
    (pin "17" (uuid 80fce30b-a3fe-4dab-b1c0-01a49e3ad06d))
    (pin "18" (uuid b9373965-89c8-4b4a-8270-7d2f3dbf212e))
    (pin "19" (uuid 069a44fd-1487-45f4-a4f0-34e8280c8688))
    (pin "2" (uuid d12c26a6-6b35-4468-8eaa-b8db2875cb67))
    (pin "3" (uuid 04fa516f-aa57-4763-9818-140baba1efef))
    (pin "4" (uuid b0ba26d0-cceb-4ee4-90aa-b1fb305c3f1d))
    (pin "5" (uuid 4433f84e-906b-4b5f-b95c-bb604675a733))
    (pin "6" (uuid 031572c1-4d63-4fa6-aea5-6ff9598d60be))
    (pin "7" (uuid 9049af50-c591-4421-8458-eab01eb1d0e8))
    (pin "8" (uuid 3f91226d-dd94-4688-9a9b-cb4ddd6bc1b8))
    (pin "9" (uuid a5378c7c-0ade-4954-82c0-e2f8b932c33f))
  )

  (symbol (lib_id "power:+3V3") (at 125.73 45.72 0) (unit 1)
    (in_bom yes) (on_board yes) (fields_autoplaced)
    (uuid 104335f9-031d-4351-a9ee-bc8e0a0ebab7)
    (property "Reference" "#PWR0134" (id 0) (at 125.73 49.53 0)
      (effects (font (size 1.27 1.27)) hide)
    )
    (property "Value" "+3V3" (id 1) (at 125.73 42.1154 0))
    (property "Footprint" "" (id 2) (at 125.73 45.72 0)
      (effects (font (size 1.27 1.27)) hide)
    )
    (property "Datasheet" "" (id 3) (at 125.73 45.72 0)
      (effects (font (size 1.27 1.27)) hide)
    )
    (pin "1" (uuid 5b6dc696-5f08-4cbc-95f1-a8528656a1fc))
  )

  (symbol (lib_id "power:GND") (at 105.41 80.01 0) (unit 1)
    (in_bom yes) (on_board yes) (fields_autoplaced)
    (uuid 11a203b8-663f-4a4e-92eb-1472044b35f6)
    (property "Reference" "#PWR0118" (id 0) (at 105.41 86.36 0)
      (effects (font (size 1.27 1.27)) hide)
    )
    (property "Value" "GND" (id 1) (at 105.41 84.5726 0)
      (effects (font (size 1.27 1.27)) hide)
    )
    (property "Footprint" "" (id 2) (at 105.41 80.01 0)
      (effects (font (size 1.27 1.27)) hide)
    )
    (property "Datasheet" "" (id 3) (at 105.41 80.01 0)
      (effects (font (size 1.27 1.27)) hide)
    )
    (pin "1" (uuid a4dedbfb-7bbf-44c4-9db9-061484ed4ed0))
  )

  (symbol (lib_id "power:GND") (at 63.5 57.15 0) (unit 1)
    (in_bom yes) (on_board yes) (fields_autoplaced)
    (uuid 12c943ec-a0d1-4282-a073-8e9c93908e26)
    (property "Reference" "#PWR0105" (id 0) (at 63.5 63.5 0)
      (effects (font (size 1.27 1.27)) hide)
    )
    (property "Value" "GND" (id 1) (at 63.5 61.7126 0)
      (effects (font (size 1.27 1.27)) hide)
    )
    (property "Footprint" "" (id 2) (at 63.5 57.15 0)
      (effects (font (size 1.27 1.27)) hide)
    )
    (property "Datasheet" "" (id 3) (at 63.5 57.15 0)
      (effects (font (size 1.27 1.27)) hide)
    )
    (pin "1" (uuid 1ddee3b0-338f-4188-8434-53082428771e))
  )

  (symbol (lib_id "Device:R") (at 83.82 101.6 0) (unit 1)
    (in_bom yes) (on_board yes) (fields_autoplaced)
    (uuid 183ddd56-d2bc-48be-ad49-f1f8f9e3d1a0)
    (property "Reference" "R2" (id 0) (at 85.5981 100.6915 0)
      (effects (font (size 1.27 1.27)) (justify left))
    )
    (property "Value" "5.1 k" (id 1) (at 85.5981 103.4666 0)
      (effects (font (size 1.27 1.27)) (justify left))
    )
    (property "Footprint" "kicad_pcb:R_0402_1005Metric" (id 2) (at 82.042 101.6 90)
      (effects (font (size 1.27 1.27)) hide)
    )
    (property "Datasheet" "" (id 3) (at 83.82 101.6 0)
      (effects (font (size 1.27 1.27)) hide)
    )
    (pin "1" (uuid 2cd57d96-3ddf-4bd8-ab75-2452a0b8b387))
    (pin "2" (uuid 4ff00b27-4223-44e2-b423-d5d0bfc94d69))
  )

  (symbol (lib_id "Device:R") (at 177.8 74.93 0) (unit 1)
    (in_bom yes) (on_board yes) (fields_autoplaced)
    (uuid 2d2c4159-e114-4e3f-bb31-9a17fa9f7e0f)
    (property "Reference" "R4" (id 0) (at 179.5781 74.0215 0)
      (effects (font (size 1.27 1.27)) (justify left))
    )
    (property "Value" "5.1 k" (id 1) (at 179.5781 76.7966 0)
      (effects (font (size 1.27 1.27)) (justify left))
    )
    (property "Footprint" "kicad_pcb:R_0402_1005Metric" (id 2) (at 176.022 74.93 90)
      (effects (font (size 1.27 1.27)) hide)
    )
    (property "Datasheet" "" (id 3) (at 177.8 74.93 0)
      (effects (font (size 1.27 1.27)) hide)
    )
    (pin "1" (uuid c9fd5e49-84ba-4897-901c-5dcddbca1fb0))
    (pin "2" (uuid eaf15905-3977-470b-a149-e7b304dfd7d0))
  )

  (symbol (lib_id "Connector:TestPoint") (at 115.57 95.25 90) (unit 1)
    (in_bom no) (on_board yes)
    (uuid 3040d37a-90d5-47c8-8824-c7c98e575a85)
    (property "Reference" "TP1" (id 0) (at 109.22 95.25 90))
    (property "Value" "TestPoint" (id 1) (at 112.268 93.4236 90)
      (effects (font (size 1.27 1.27)) hide)
    )
    (property "Footprint" "TestPoint:TestPoint_THTPad_D1.5mm_Drill0.7mm" (id 2) (at 115.57 90.17 0)
      (effects (font (size 1.27 1.27)) hide)
    )
    (property "Datasheet" "~" (id 3) (at 115.57 90.17 0)
      (effects (font (size 1.27 1.27)) hide)
    )
    (pin "1" (uuid 626e6fe8-6b04-4d20-b82d-9431cb35c0be))
  )

  (symbol (lib_id "Device:R") (at 134.62 148.59 0) (unit 1)
    (in_bom yes) (on_board yes) (fields_autoplaced)
    (uuid 37884d57-2054-4498-8cf8-2a6a8053869e)
    (property "Reference" "R3" (id 0) (at 136.398 147.6815 0)
      (effects (font (size 1.27 1.27)) (justify left))
    )
    (property "Value" "3900 0.1%" (id 1) (at 136.398 150.4566 0)
      (effects (font (size 1.27 1.27)) (justify left))
    )
    (property "Footprint" "kicad_pcb:R_0402_1005Metric" (id 2) (at 132.842 148.59 90)
      (effects (font (size 1.27 1.27)) hide)
    )
    (property "Datasheet" "" (id 3) (at 134.62 148.59 0)
      (effects (font (size 1.27 1.27)) hide)
    )
    (pin "1" (uuid ba8080d1-0f4c-47be-898b-0659faaa72ae))
    (pin "2" (uuid 8365bb65-db03-4fe6-91ba-498c1d4de366))
  )

  (symbol (lib_id "power:GND") (at 74.93 105.41 0) (unit 1)
    (in_bom yes) (on_board yes) (fields_autoplaced)
    (uuid 37b974da-3810-4429-8160-fcb424bba88e)
    (property "Reference" "#PWR0108" (id 0) (at 74.93 111.76 0)
      (effects (font (size 1.27 1.27)) hide)
    )
    (property "Value" "GND" (id 1) (at 74.93 109.9726 0)
      (effects (font (size 1.27 1.27)) hide)
    )
    (property "Footprint" "" (id 2) (at 74.93 105.41 0)
      (effects (font (size 1.27 1.27)) hide)
    )
    (property "Datasheet" "" (id 3) (at 74.93 105.41 0)
      (effects (font (size 1.27 1.27)) hide)
    )
    (pin "1" (uuid 1e50d949-db9d-4c13-a210-6a1f65bb26ce))
  )

  (symbol (lib_id "power:GND") (at 166.37 154.94 0) (unit 1)
    (in_bom yes) (on_board yes) (fields_autoplaced)
    (uuid 4ba93830-f6a1-43b0-a329-3009ff2c2a82)
    (property "Reference" "#PWR0119" (id 0) (at 166.37 161.29 0)
      (effects (font (size 1.27 1.27)) hide)
    )
    (property "Value" "GND" (id 1) (at 166.37 159.5026 0)
      (effects (font (size 1.27 1.27)) hide)
    )
    (property "Footprint" "" (id 2) (at 166.37 154.94 0)
      (effects (font (size 1.27 1.27)) hide)
    )
    (property "Datasheet" "" (id 3) (at 166.37 154.94 0)
      (effects (font (size 1.27 1.27)) hide)
    )
    (pin "1" (uuid 44fe69db-95f5-4c85-8d54-e98d7cdeeafe))
  )

  (symbol (lib_id "power:+3V3") (at 124.46 64.77 0) (unit 1)
    (in_bom yes) (on_board yes) (fields_autoplaced)
    (uuid 511a355e-cf77-45fe-98ed-67b5dfbdf978)
    (property "Reference" "#PWR0113" (id 0) (at 124.46 68.58 0)
      (effects (font (size 1.27 1.27)) hide)
    )
    (property "Value" "+3V3" (id 1) (at 124.46 61.1654 0))
    (property "Footprint" "" (id 2) (at 124.46 64.77 0)
      (effects (font (size 1.27 1.27)) hide)
    )
    (property "Datasheet" "" (id 3) (at 124.46 64.77 0)
      (effects (font (size 1.27 1.27)) hide)
    )
    (pin "1" (uuid 780902ee-4189-4ca9-88b5-cd6a34377205))
  )

  (symbol (lib_id "ic:DR2TQ") (at 92.71 67.31 0) (unit 1)
    (in_bom yes) (on_board yes) (fields_autoplaced)
    (uuid 525e0135-6387-4249-bbdf-1bc42cfb1ed7)
    (property "Reference" "U2" (id 0) (at 100.33 63.4705 0))
    (property "Value" "DR2TQ" (id 1) (at 100.33 66.2456 0))
    (property "Footprint" "kicad_pcb:DFN-6-1EP_2x2mm_P0.65mm_EP1x1.6mm" (id 2) (at 100.33 66.04 0)
      (effects (font (size 1.27 1.27)) (justify left) hide)
    )
    (property "Datasheet" "${PARTS}/TTGT9/lp5912.pdf" (id 3) (at 99.06 67.31 90)
      (effects (font (size 1.27 1.27)) hide)
    )
    (pin "1" (uuid 42004615-9074-44c3-b4f6-bc0012f9845a))
    (pin "2" (uuid 1dc145d8-ad4a-46c0-8411-6e0ee1547294))
    (pin "3" (uuid ba593c81-687c-4bcb-94d3-947c52dd4ae2))
    (pin "4" (uuid d30fb3f1-a7d5-4c55-b444-da30a2c04270))
    (pin "5" (uuid 839ee3f0-b636-44e4-b862-1564b098eda5))
    (pin "6" (uuid 9881866f-6c46-4b39-be92-3d50df17a19d))
    (pin "7" (uuid e316a204-3b40-456f-843d-3121289f4e51))
  )

  (symbol (lib_id "power:GND") (at 115.57 100.33 0) (unit 1)
    (in_bom yes) (on_board yes) (fields_autoplaced)
    (uuid 56125807-6c72-4e7c-935e-1f8d9cbf293a)
    (property "Reference" "#PWR0141" (id 0) (at 115.57 106.68 0)
      (effects (font (size 1.27 1.27)) hide)
    )
    (property "Value" "GND" (id 1) (at 115.57 104.8926 0)
      (effects (font (size 1.27 1.27)) hide)
    )
    (property "Footprint" "" (id 2) (at 115.57 100.33 0)
      (effects (font (size 1.27 1.27)) hide)
    )
    (property "Datasheet" "" (id 3) (at 115.57 100.33 0)
      (effects (font (size 1.27 1.27)) hide)
    )
    (pin "1" (uuid c49ea860-0687-4b36-a3ca-afacc6bfd3ec))
  )

  (symbol (lib_id "power:GND") (at 78.74 77.47 0) (unit 1)
    (in_bom yes) (on_board yes) (fields_autoplaced)
    (uuid 57658d93-34d1-4867-99d2-7538d2939c68)
    (property "Reference" "#PWR0104" (id 0) (at 78.74 83.82 0)
      (effects (font (size 1.27 1.27)) hide)
    )
    (property "Value" "GND" (id 1) (at 78.74 82.0326 0)
      (effects (font (size 1.27 1.27)) hide)
    )
    (property "Footprint" "" (id 2) (at 78.74 77.47 0)
      (effects (font (size 1.27 1.27)) hide)
    )
    (property "Datasheet" "" (id 3) (at 78.74 77.47 0)
      (effects (font (size 1.27 1.27)) hide)
    )
    (pin "1" (uuid 9b10098c-b618-4b7f-afb7-fedcb1bc74a2))
  )

  (symbol (lib_id "Sensor_Temperature:MAX31865xTP") (at 115.57 158.75 0) (unit 1)
    (in_bom yes) (on_board yes) (fields_autoplaced)
    (uuid 5d4c5cd9-5b0f-42b1-8cc4-c1ffd8778aab)
    (property "Reference" "U3" (id 0) (at 120.1294 137.0035 0)
      (effects (font (size 1.27 1.27)) (justify left))
    )
    (property "Value" "MAX31865xTP" (id 1) (at 120.1294 139.7786 0)
      (effects (font (size 1.27 1.27)) (justify left))
    )
    (property "Footprint" "Package_DFN_QFN:TQFN-20-1EP_5x5mm_P0.65mm_EP3.25x3.25mm" (id 2) (at 119.38 175.26 0)
      (effects (font (size 1.27 1.27)) (justify left) hide)
    )
    (property "Datasheet" "https://datasheets.maximintegrated.com/en/ds/MAX31865.pdf" (id 3) (at 115.57 151.13 0)
      (effects (font (size 1.27 1.27)) hide)
    )
    (pin "1" (uuid b0b2ea58-cd49-4e9d-b105-db66782e169a))
    (pin "10" (uuid 65d26aa6-b861-4fbe-bb0e-31c3ca4d1f56))
    (pin "11" (uuid 4b78ee2b-ba16-480f-8679-9469d3c7bd77))
    (pin "12" (uuid 4094419e-7788-4366-b53b-aa8391c94eb3))
    (pin "13" (uuid a9332d17-7e1f-4aec-9f11-4b1997533cf6))
    (pin "14" (uuid e9dbde91-4054-4df0-bfb6-47a2bbfef412))
    (pin "15" (uuid 28e55c69-4a6f-48a4-a650-14891d44c655))
    (pin "16" (uuid d8f87a4f-c929-4f7d-8f11-7f0bf8ac342d))
    (pin "17" (uuid 4cfe5091-2e77-45ef-8205-c8ee2c9f3af9))
    (pin "18" (uuid 2894370e-9976-4354-9b84-124b275675c0))
    (pin "19" (uuid 6fa7f7e6-38d2-4f68-a109-1eb9f7d65553))
    (pin "2" (uuid 01a03bf0-6ea8-4164-a5db-d4eff3776998))
    (pin "20" (uuid f1281c27-31d2-43be-a8e0-87ad3df15c70))
    (pin "21" (uuid 1a8b5bd6-3aad-4589-ab59-1715e08e06bc))
    (pin "3" (uuid ac420a79-08a6-498e-a884-ec3bca988382))
    (pin "4" (uuid dfb9e983-a42f-4d54-bd10-7f15b6d31b64))
    (pin "5" (uuid feab8441-7497-40f3-a8c8-361ce83bc8b4))
    (pin "6" (uuid 672d0308-2fe4-4da0-9e41-20cde42baba4))
    (pin "7" (uuid 4d0b1ade-be89-4302-9688-485cdb771262))
    (pin "8" (uuid ba639ce0-e659-4691-b6c2-2b6882a7a8c1))
    (pin "9" (uuid 2c5288d5-3f30-4a39-b60a-4d636847daad))
  )

  (symbol (lib_id "power:+3V3") (at 177.8 71.12 0) (unit 1)
    (in_bom yes) (on_board yes) (fields_autoplaced)
    (uuid 5e42962e-7bca-4ff4-8818-ecb2b6a3f4f5)
    (property "Reference" "#PWR0110" (id 0) (at 177.8 74.93 0)
      (effects (font (size 1.27 1.27)) hide)
    )
    (property "Value" "+3V3" (id 1) (at 177.8 67.5154 0))
    (property "Footprint" "" (id 2) (at 177.8 71.12 0)
      (effects (font (size 1.27 1.27)) hide)
    )
    (property "Datasheet" "" (id 3) (at 177.8 71.12 0)
      (effects (font (size 1.27 1.27)) hide)
    )
    (pin "1" (uuid d793abc4-6041-4265-aee7-70f3e7ab67ae))
  )

  (symbol (lib_id "Device:C") (at 166.37 151.13 0) (unit 1)
    (in_bom yes) (on_board yes) (fields_autoplaced)
    (uuid 75ac0cd4-e65a-4c7b-8d1a-48f056a91ec4)
    (property "Reference" "C4" (id 0) (at 169.2911 150.2215 0)
      (effects (font (size 1.27 1.27)) (justify left))
    )
    (property "Value" "4.7 uF" (id 1) (at 169.2911 152.9966 0)
      (effects (font (size 1.27 1.27)) (justify left))
    )
    (property "Footprint" "kicad_pcb:C_0603_1608Metric" (id 2) (at 167.3352 154.94 0)
      (effects (font (size 1.27 1.27)) hide)
    )
    (property "Datasheet" "" (id 3) (at 166.37 151.13 0)
      (effects (font (size 1.27 1.27)) hide)
    )
    (pin "1" (uuid 8be97f5b-0e06-4638-970d-5395a284b3f1))
    (pin "2" (uuid 1ef86c99-6015-4936-bf67-8ccc73bd8798))
  )

  (symbol (lib_id "power:GND") (at 125.73 53.34 0) (unit 1)
    (in_bom yes) (on_board yes) (fields_autoplaced)
    (uuid 797e1f5e-9efb-474b-bb98-b33fc6032e6b)
    (property "Reference" "#PWR0133" (id 0) (at 125.73 59.69 0)
      (effects (font (size 1.27 1.27)) hide)
    )
    (property "Value" "GND" (id 1) (at 125.73 57.9026 0)
      (effects (font (size 1.27 1.27)) hide)
    )
    (property "Footprint" "" (id 2) (at 125.73 53.34 0)
      (effects (font (size 1.27 1.27)) hide)
    )
    (property "Datasheet" "" (id 3) (at 125.73 53.34 0)
      (effects (font (size 1.27 1.27)) hide)
    )
    (pin "1" (uuid 0d64728b-7f00-4d2a-9e2a-98f65b9d5f07))
  )

  (symbol (lib_id "power:+3V3") (at 114.3 67.31 0) (unit 1)
    (in_bom yes) (on_board yes) (fields_autoplaced)
    (uuid 7a1a0959-3c45-4d1d-bc93-c09be831199e)
    (property "Reference" "#PWR0107" (id 0) (at 114.3 71.12 0)
      (effects (font (size 1.27 1.27)) hide)
    )
    (property "Value" "+3V3" (id 1) (at 114.3 63.7054 0))
    (property "Footprint" "" (id 2) (at 114.3 67.31 0)
      (effects (font (size 1.27 1.27)) hide)
    )
    (property "Datasheet" "" (id 3) (at 114.3 67.31 0)
      (effects (font (size 1.27 1.27)) hide)
    )
    (pin "1" (uuid 7af9e96b-43a3-4f11-ab4d-54025e32e5e9))
  )

  (symbol (lib_id "misc:tooling_hole") (at 226.06 157.48 0) (unit 1)
    (in_bom no) (on_board yes) (fields_autoplaced)
    (uuid 7cdf63c6-8645-44c1-aa55-3e34dc970d6b)
    (property "Reference" "TH2" (id 0) (at 227.9651 157.959 0)
      (effects (font (size 1.27 1.27)) (justify left))
    )
    (property "Value" "tooling_hole" (id 1) (at 229.87 157.48 0)
      (effects (font (size 1.27 1.27)) (justify left) hide)
    )
    (property "Footprint" "kicad_pcb:tooling_hole_2.55" (id 2) (at 229.87 154.94 0)
      (effects (font (size 1.27 1.27)) (justify left) hide)
    )
    (property "Datasheet" "" (id 3) (at 231.14 152.4 90)
      (effects (font (size 1.27 1.27)) hide)
    )
  )

  (symbol (lib_id "power:GND") (at 226.06 146.05 0) (unit 1)
    (in_bom yes) (on_board yes) (fields_autoplaced)
    (uuid 83d81329-8144-415f-8cc1-ffe631a2c4fa)
    (property "Reference" "#PWR0121" (id 0) (at 226.06 152.4 0)
      (effects (font (size 1.27 1.27)) hide)
    )
    (property "Value" "GND" (id 1) (at 226.06 150.6126 0)
      (effects (font (size 1.27 1.27)) hide)
    )
    (property "Footprint" "" (id 2) (at 226.06 146.05 0)
      (effects (font (size 1.27 1.27)) hide)
    )
    (property "Datasheet" "" (id 3) (at 226.06 146.05 0)
      (effects (font (size 1.27 1.27)) hide)
    )
    (pin "1" (uuid 8cbb0f82-35ba-4244-97f4-0e97c8880a6f))
  )

  (symbol (lib_id "Device:C") (at 138.43 165.1 0) (unit 1)
    (in_bom yes) (on_board yes) (fields_autoplaced)
    (uuid 840ee8cc-3f86-4b3e-9df3-6b8c863dc0ef)
    (property "Reference" "C10" (id 0) (at 141.351 164.1915 0)
      (effects (font (size 1.27 1.27)) (justify left))
    )
    (property "Value" "10 nF" (id 1) (at 141.351 166.9666 0)
      (effects (font (size 1.27 1.27)) (justify left))
    )
    (property "Footprint" "kicad_pcb:C_0603_1608Metric" (id 2) (at 139.3952 168.91 0)
      (effects (font (size 1.27 1.27)) hide)
    )
    (property "Datasheet" "" (id 3) (at 138.43 165.1 0)
      (effects (font (size 1.27 1.27)) hide)
    )
    (pin "1" (uuid 3fb484cb-cd4c-4513-8341-534ee5f71206))
    (pin "2" (uuid 711fbe74-0dbf-4daa-8da6-399f8eb27d98))
  )

  (symbol (lib_id "connector:CGH8B") (at 64.77 74.93 0) (unit 1)
    (in_bom yes) (on_board yes) (fields_autoplaced)
    (uuid 97bd8ed8-a5b5-4748-a05a-59dd05ea6422)
    (property "Reference" "J1" (id 0) (at 61.7855 71.0904 0))
    (property "Value" "TYPE-C-31-M-12" (id 1) (at 61.7855 73.8655 0))
    (property "Footprint" "kicad_pcb:USB_C_Receptacle_HRO_TYPE-C-31-M-12" (id 2) (at 54.61 73.66 0)
      (effects (font (size 1.27 1.27)) (justify left) hide)
    )
    (property "Datasheet" "${PARTS}/CGH8B/TYPE-C-31-M-12.pdf" (id 3) (at 60.96 74.93 90)
      (effects (font (size 1.27 1.27)) hide)
    )
    (pin "A1" (uuid 9e8c89a4-d375-43ca-8e76-02b01224b4cd))
    (pin "A4" (uuid 4db22a5c-58b3-47b5-8f1f-b52186ec247f))
    (pin "A5" (uuid 703321f8-7461-4d70-be85-3939b924b58f))
    (pin "A6" (uuid 09b06262-57f1-4c43-92a9-d0cd4267cd61))
    (pin "A7" (uuid 1c5cc60a-ab07-4e56-b06c-53550f8364d2))
    (pin "A8" (uuid edf0abf0-f5fc-41cf-bc98-6745adb0a184))
    (pin "B1" (uuid 5fea7a15-1f20-4707-af07-db14348b800f))
    (pin "B4" (uuid 6a27a38e-319e-4288-874a-71001ebb6f50))
    (pin "B5" (uuid 222ce4b5-afe8-45eb-9da2-bac282a334c5))
    (pin "B6" (uuid e2b33272-a917-4705-a1fc-f7c83dd2c61c))
    (pin "B7" (uuid f3946d94-a7f5-4fad-98d1-3ed43a163e58))
    (pin "B8" (uuid c49216f9-5426-419e-94f9-d07b0f0655b7))
    (pin "S1" (uuid 2f309b56-466e-4232-a8bd-86474874cc42))
  )

  (symbol (lib_id "power:GND") (at 176.53 113.03 0) (unit 1)
    (in_bom yes) (on_board yes) (fields_autoplaced)
    (uuid 9ea3db2e-7ca2-4d3e-a25a-80f7a817ee18)
    (property "Reference" "#PWR0112" (id 0) (at 176.53 119.38 0)
      (effects (font (size 1.27 1.27)) hide)
    )
    (property "Value" "GND" (id 1) (at 176.53 117.5926 0)
      (effects (font (size 1.27 1.27)) hide)
    )
    (property "Footprint" "" (id 2) (at 176.53 113.03 0)
      (effects (font (size 1.27 1.27)) hide)
    )
    (property "Datasheet" "" (id 3) (at 176.53 113.03 0)
      (effects (font (size 1.27 1.27)) hide)
    )
    (pin "1" (uuid 8de2e4ef-a90f-4f99-9bb1-52c289e1c27f))
  )

  (symbol (lib_id "Connector_Generic:Conn_01x02") (at 58.42 53.34 0) (mirror y) (unit 1)
    (in_bom yes) (on_board yes) (fields_autoplaced)
    (uuid a0b82ef0-b4bf-4eb6-bc71-ecaffd281bfa)
    (property "Reference" "J2" (id 0) (at 58.42 48.1035 0))
    (property "Value" "JST_PA2" (id 1) (at 58.42 50.8786 0))
    (property "Footprint" "kicad_pcb:JST_PA_B02B-PASK_1x02_P2.00mm_Vertical" (id 2) (at 58.42 53.34 0)
      (effects (font (size 1.27 1.27)) hide)
    )
    (property "Datasheet" "~" (id 3) (at 58.42 53.34 0)
      (effects (font (size 1.27 1.27)) hide)
    )
    (pin "1" (uuid e11e2b54-05a5-4cb5-b7a9-9d080a41f592))
    (pin "2" (uuid 80d12854-82df-40ae-811c-c0d66447cb52))
  )

  (symbol (lib_id "Connector:TestPoint") (at 115.57 100.33 90) (unit 1)
    (in_bom no) (on_board yes) (fields_autoplaced)
    (uuid a16c004a-5b26-47df-8c69-c0278fbb44d7)
    (property "Reference" "TP3" (id 0) (at 110.871 100.809 90)
      (effects (font (size 1.27 1.27)) (justify left))
    )
    (property "Value" "TestPoint" (id 1) (at 112.268 98.5036 90)
      (effects (font (size 1.27 1.27)) hide)
    )
    (property "Footprint" "TestPoint:TestPoint_THTPad_D1.5mm_Drill0.7mm" (id 2) (at 115.57 95.25 0)
      (effects (font (size 1.27 1.27)) hide)
    )
    (property "Datasheet" "~" (id 3) (at 115.57 95.25 0)
      (effects (font (size 1.27 1.27)) hide)
    )
    (pin "1" (uuid 6fdff50e-8c0d-46f3-b767-170ea35f8596))
  )

  (symbol (lib_id "Device:R") (at 74.93 101.6 0) (unit 1)
    (in_bom yes) (on_board yes) (fields_autoplaced)
    (uuid a2ba546a-32e5-4131-b2b7-f5f0b85174d6)
    (property "Reference" "R1" (id 0) (at 76.7081 100.6915 0)
      (effects (font (size 1.27 1.27)) (justify left))
    )
    (property "Value" "5.1 k" (id 1) (at 76.7081 103.4666 0)
      (effects (font (size 1.27 1.27)) (justify left))
    )
    (property "Footprint" "kicad_pcb:R_0402_1005Metric" (id 2) (at 73.152 101.6 90)
      (effects (font (size 1.27 1.27)) hide)
    )
    (property "Datasheet" "" (id 3) (at 74.93 101.6 0)
      (effects (font (size 1.27 1.27)) hide)
    )
    (pin "1" (uuid fabcd0c9-54b6-4640-883f-0dfe7ad244a3))
    (pin "2" (uuid 45f72684-d34a-4926-9be7-f90519582d58))
  )

  (symbol (lib_id "power:+3V3") (at 149.86 69.85 0) (unit 1)
    (in_bom yes) (on_board yes) (fields_autoplaced)
    (uuid a45ee980-aeea-4c6b-9143-c277d42dc773)
    (property "Reference" "#PWR0101" (id 0) (at 149.86 73.66 0)
      (effects (font (size 1.27 1.27)) hide)
    )
    (property "Value" "+3V3" (id 1) (at 149.86 66.2454 0))
    (property "Footprint" "" (id 2) (at 149.86 69.85 0)
      (effects (font (size 1.27 1.27)) hide)
    )
    (property "Datasheet" "" (id 3) (at 149.86 69.85 0)
      (effects (font (size 1.27 1.27)) hide)
    )
    (pin "1" (uuid c281cbb2-542d-4f0b-8332-114ead8b5018))
  )

  (symbol (lib_id "power:+3V3") (at 166.37 147.32 0) (unit 1)
    (in_bom yes) (on_board yes) (fields_autoplaced)
    (uuid aa2970e4-c802-44bd-b00c-e0ef0d6dbab9)
    (property "Reference" "#PWR0120" (id 0) (at 166.37 151.13 0)
      (effects (font (size 1.27 1.27)) hide)
    )
    (property "Value" "+3V3" (id 1) (at 166.37 143.7154 0))
    (property "Footprint" "" (id 2) (at 166.37 147.32 0)
      (effects (font (size 1.27 1.27)) hide)
    )
    (property "Datasheet" "" (id 3) (at 166.37 147.32 0)
      (effects (font (size 1.27 1.27)) hide)
    )
    (pin "1" (uuid 30748642-481c-4e13-b61f-7ed0a055ed8f))
  )

  (symbol (lib_id "Device:C") (at 124.46 76.2 0) (unit 1)
    (in_bom yes) (on_board yes) (fields_autoplaced)
    (uuid ad3d381f-c2c2-4284-85f8-9005c0f22a99)
    (property "Reference" "C3" (id 0) (at 127.3811 75.2915 0)
      (effects (font (size 1.27 1.27)) (justify left))
    )
    (property "Value" "4.7 uF" (id 1) (at 127.3811 78.0666 0)
      (effects (font (size 1.27 1.27)) (justify left))
    )
    (property "Footprint" "kicad_pcb:C_0603_1608Metric" (id 2) (at 125.4252 80.01 0)
      (effects (font (size 1.27 1.27)) hide)
    )
    (property "Datasheet" "" (id 3) (at 124.46 76.2 0)
      (effects (font (size 1.27 1.27)) hide)
    )
    (pin "1" (uuid 90da958d-1224-4abb-b45d-5eafc74781be))
    (pin "2" (uuid b722b1a7-c722-4342-bc20-3988d096b84d))
  )

  (symbol (lib_id "Device:R") (at 124.46 68.58 0) (unit 1)
    (in_bom yes) (on_board yes) (fields_autoplaced)
    (uuid ae8d476d-61dc-42fb-ba00-f3214c0ea55d)
    (property "Reference" "R5" (id 0) (at 126.2381 67.6715 0)
      (effects (font (size 1.27 1.27)) (justify left))
    )
    (property "Value" "5.1 k" (id 1) (at 126.2381 70.4466 0)
      (effects (font (size 1.27 1.27)) (justify left))
    )
    (property "Footprint" "kicad_pcb:R_0402_1005Metric" (id 2) (at 122.682 68.58 90)
      (effects (font (size 1.27 1.27)) hide)
    )
    (property "Datasheet" "" (id 3) (at 124.46 68.58 0)
      (effects (font (size 1.27 1.27)) hide)
    )
    (pin "1" (uuid 7919c94b-70ba-46c1-8480-f8efae454ad0))
    (pin "2" (uuid 5def1717-f4f2-49a8-9dd9-52e27f11e617))
  )

  (symbol (lib_id "Connector:TestPoint") (at 115.57 97.79 90) (unit 1)
    (in_bom no) (on_board yes)
    (uuid b4c9b2ff-e2bc-418f-9934-c324ddb4d3b4)
    (property "Reference" "TP2" (id 0) (at 109.22 97.79 90))
    (property "Value" "TestPoint" (id 1) (at 112.268 95.9636 90)
      (effects (font (size 1.27 1.27)) hide)
    )
    (property "Footprint" "TestPoint:TestPoint_THTPad_D1.5mm_Drill0.7mm" (id 2) (at 115.57 92.71 0)
      (effects (font (size 1.27 1.27)) hide)
    )
    (property "Datasheet" "~" (id 3) (at 115.57 92.71 0)
      (effects (font (size 1.27 1.27)) hide)
    )
    (pin "1" (uuid 6efc9d70-df04-495d-9537-e7b7a286e60a))
  )

  (symbol (lib_id "power:+3V3") (at 115.57 95.25 270) (unit 1)
    (in_bom yes) (on_board yes) (fields_autoplaced)
    (uuid b55ca1af-c914-47af-beaa-6a4d6927e95b)
    (property "Reference" "#PWR0140" (id 0) (at 111.76 95.25 0)
      (effects (font (size 1.27 1.27)) hide)
    )
    (property "Value" "+3V3" (id 1) (at 118.745 95.729 90)
      (effects (font (size 1.27 1.27)) (justify left))
    )
    (property "Footprint" "" (id 2) (at 115.57 95.25 0)
      (effects (font (size 1.27 1.27)) hide)
    )
    (property "Datasheet" "" (id 3) (at 115.57 95.25 0)
      (effects (font (size 1.27 1.27)) hide)
    )
    (pin "1" (uuid 4d2098e1-e225-45cc-8e00-6221ba5f074a))
  )

  (symbol (lib_id "power:GND") (at 83.82 105.41 0) (unit 1)
    (in_bom yes) (on_board yes) (fields_autoplaced)
    (uuid b8852360-ecd5-45e8-bebb-5cbcbf91c460)
    (property "Reference" "#PWR0109" (id 0) (at 83.82 111.76 0)
      (effects (font (size 1.27 1.27)) hide)
    )
    (property "Value" "GND" (id 1) (at 83.82 109.9726 0)
      (effects (font (size 1.27 1.27)) hide)
    )
    (property "Footprint" "" (id 2) (at 83.82 105.41 0)
      (effects (font (size 1.27 1.27)) hide)
    )
    (property "Datasheet" "" (id 3) (at 83.82 105.41 0)
      (effects (font (size 1.27 1.27)) hide)
    )
    (pin "1" (uuid 2870b5c3-5a1e-4cfa-9bbd-9b7f57416918))
  )

  (symbol (lib_id "power:GND") (at 124.46 80.01 0) (unit 1)
    (in_bom yes) (on_board yes) (fields_autoplaced)
    (uuid c3cbceef-bd55-489c-8bc9-33ce768190ba)
    (property "Reference" "#PWR0114" (id 0) (at 124.46 86.36 0)
      (effects (font (size 1.27 1.27)) hide)
    )
    (property "Value" "GND" (id 1) (at 124.46 84.5726 0)
      (effects (font (size 1.27 1.27)) hide)
    )
    (property "Footprint" "" (id 2) (at 124.46 80.01 0)
      (effects (font (size 1.27 1.27)) hide)
    )
    (property "Datasheet" "" (id 3) (at 124.46 80.01 0)
      (effects (font (size 1.27 1.27)) hide)
    )
    (pin "1" (uuid ec6eaef0-d2b1-4461-aec9-665d34d5937e))
  )

  (symbol (lib_id "Jumper:Jumper_2_Open") (at 176.53 107.95 90) (unit 1)
    (in_bom no) (on_board yes) (fields_autoplaced)
    (uuid c670082f-05e2-4898-b071-9d3ac6107f6c)
    (property "Reference" "JP1" (id 0) (at 177.6731 107.0415 90)
      (effects (font (size 1.27 1.27)) (justify right))
    )
    (property "Value" "Jumper_2_Open" (id 1) (at 177.6731 109.8166 90)
      (effects (font (size 1.27 1.27)) (justify right))
    )
    (property "Footprint" "TestPoint:TestPoint_2Pads_Pitch2.54mm_Drill0.8mm" (id 2) (at 176.53 107.95 0)
      (effects (font (size 1.27 1.27)) hide)
    )
    (property "Datasheet" "" (id 3) (at 176.53 107.95 0)
      (effects (font (size 1.27 1.27)) hide)
    )
    (pin "1" (uuid 9a9058d5-4dd0-47a0-be8e-ec465f9c09a7))
    (pin "2" (uuid 21d096e4-411f-4564-9816-341c02b497ba))
  )

  (symbol (lib_id "power:GND") (at 69.85 109.22 0) (unit 1)
    (in_bom yes) (on_board yes) (fields_autoplaced)
    (uuid c9c8b9c9-0a8a-4188-bce0-779f94a88c3e)
    (property "Reference" "#PWR0103" (id 0) (at 69.85 115.57 0)
      (effects (font (size 1.27 1.27)) hide)
    )
    (property "Value" "GND" (id 1) (at 69.85 113.7826 0)
      (effects (font (size 1.27 1.27)) hide)
    )
    (property "Footprint" "" (id 2) (at 69.85 109.22 0)
      (effects (font (size 1.27 1.27)) hide)
    )
    (property "Datasheet" "" (id 3) (at 69.85 109.22 0)
      (effects (font (size 1.27 1.27)) hide)
    )
    (pin "1" (uuid e201fc2a-42f7-40ec-a9b6-d0290ad9b704))
  )

  (symbol (lib_id "Device:C") (at 125.73 49.53 0) (unit 1)
    (in_bom yes) (on_board yes) (fields_autoplaced)
    (uuid cc4af1a6-e97a-41f8-87f1-fa82749e1949)
    (property "Reference" "C2" (id 0) (at 128.6511 48.6215 0)
      (effects (font (size 1.27 1.27)) (justify left))
    )
    (property "Value" "4.7 uF" (id 1) (at 128.6511 51.3966 0)
      (effects (font (size 1.27 1.27)) (justify left))
    )
    (property "Footprint" "kicad_pcb:C_0603_1608Metric" (id 2) (at 126.6952 53.34 0)
      (effects (font (size 1.27 1.27)) hide)
    )
    (property "Datasheet" "" (id 3) (at 125.73 49.53 0)
      (effects (font (size 1.27 1.27)) hide)
    )
    (pin "1" (uuid 73f4209c-b691-4e6a-857b-e070452df764))
    (pin "2" (uuid 32adcfe0-4556-427f-81af-b05eeeba759c))
  )

  (symbol (lib_id "Mechanical:MountingHole_Pad") (at 226.06 143.51 0) (unit 1)
    (in_bom no) (on_board yes) (fields_autoplaced)
    (uuid d0e10084-427a-4fb0-92b0-753eba462fdb)
    (property "Reference" "H1" (id 0) (at 228.6001 142.4745 0)
      (effects (font (size 1.27 1.27)) (justify left))
    )
    (property "Value" "MountingHole_Pad" (id 1) (at 228.6001 145.2496 0)
      (effects (font (size 1.27 1.27)) (justify left))
    )
    (property "Footprint" "MountingHole:MountingHole_3.2mm_M3_DIN965_Pad_TopBottom" (id 2) (at 226.06 143.51 0)
      (effects (font (size 1.27 1.27)) hide)
    )
    (property "Datasheet" "" (id 3) (at 226.06 143.51 0)
      (effects (font (size 1.27 1.27)) hide)
    )
    (pin "1" (uuid 79ca3c4c-8b52-4bc6-8a58-0e9ffef08081))
  )

  (symbol (lib_id "Device:C") (at 78.74 73.66 0) (unit 1)
    (in_bom yes) (on_board yes) (fields_autoplaced)
    (uuid d23e06f6-98b7-4ce2-9336-628b3a7f817e)
    (property "Reference" "C1" (id 0) (at 81.6611 72.7515 0)
      (effects (font (size 1.27 1.27)) (justify left))
    )
    (property "Value" "4.7 uF" (id 1) (at 81.6611 75.5266 0)
      (effects (font (size 1.27 1.27)) (justify left))
    )
    (property "Footprint" "kicad_pcb:C_0603_1608Metric" (id 2) (at 79.7052 77.47 0)
      (effects (font (size 1.27 1.27)) hide)
    )
    (property "Datasheet" "" (id 3) (at 78.74 73.66 0)
      (effects (font (size 1.27 1.27)) hide)
    )
    (pin "1" (uuid 81fc23f7-66af-4959-a75a-70e80f4bd5ac))
    (pin "2" (uuid 9e2e8073-af03-481b-b431-c78b7ecdb87a))
  )

  (symbol (lib_id "power:+3V3") (at 186.69 68.58 0) (unit 1)
    (in_bom yes) (on_board yes) (fields_autoplaced)
    (uuid d51afd9c-fe68-444c-a66d-de8022b346bf)
    (property "Reference" "#PWR0111" (id 0) (at 186.69 72.39 0)
      (effects (font (size 1.27 1.27)) hide)
    )
    (property "Value" "+3V3" (id 1) (at 186.69 64.9754 0))
    (property "Footprint" "" (id 2) (at 186.69 68.58 0)
      (effects (font (size 1.27 1.27)) hide)
    )
    (property "Datasheet" "" (id 3) (at 186.69 68.58 0)
      (effects (font (size 1.27 1.27)) hide)
    )
    (pin "1" (uuid f1fb53ef-5ec8-444f-ad55-b1eea8c69621))
  )

  (symbol (lib_id "power:GND") (at 149.86 105.41 0) (unit 1)
    (in_bom yes) (on_board yes) (fields_autoplaced)
    (uuid d62f80ea-d1cd-46d4-836a-fc573b2fa5e3)
    (property "Reference" "#PWR0102" (id 0) (at 149.86 111.76 0)
      (effects (font (size 1.27 1.27)) hide)
    )
    (property "Value" "GND" (id 1) (at 149.86 109.9726 0)
      (effects (font (size 1.27 1.27)) hide)
    )
    (property "Footprint" "" (id 2) (at 149.86 105.41 0)
      (effects (font (size 1.27 1.27)) hide)
    )
    (property "Datasheet" "" (id 3) (at 149.86 105.41 0)
      (effects (font (size 1.27 1.27)) hide)
    )
    (pin "1" (uuid 38d97a81-d1d0-4d24-ab55-38a85f284bf7))
  )

  (symbol (lib_id "misc:tooling_hole") (at 226.06 153.67 0) (unit 1)
    (in_bom no) (on_board yes) (fields_autoplaced)
    (uuid dce1d9fe-227e-4893-bddb-43f2f667c420)
    (property "Reference" "TH1" (id 0) (at 227.9651 154.149 0)
      (effects (font (size 1.27 1.27)) (justify left))
    )
    (property "Value" "tooling_hole" (id 1) (at 229.87 153.67 0)
      (effects (font (size 1.27 1.27)) (justify left) hide)
    )
    (property "Footprint" "kicad_pcb:tooling_hole_2.55" (id 2) (at 229.87 151.13 0)
      (effects (font (size 1.27 1.27)) (justify left) hide)
    )
    (property "Datasheet" "" (id 3) (at 231.14 148.59 90)
      (effects (font (size 1.27 1.27)) hide)
    )
  )

  (symbol (lib_id "power:+3V3") (at 113.03 138.43 0) (unit 1)
    (in_bom yes) (on_board yes) (fields_autoplaced)
    (uuid ec464312-ddcc-4230-aa39-2bd6f1b8d086)
    (property "Reference" "#PWR0117" (id 0) (at 113.03 142.24 0)
      (effects (font (size 1.27 1.27)) hide)
    )
    (property "Value" "+3V3" (id 1) (at 113.03 134.8254 0))
    (property "Footprint" "" (id 2) (at 113.03 138.43 0)
      (effects (font (size 1.27 1.27)) hide)
    )
    (property "Datasheet" "" (id 3) (at 113.03 138.43 0)
      (effects (font (size 1.27 1.27)) hide)
    )
    (pin "1" (uuid 3385a906-fd80-4ed8-8602-6ae58ff960f6))
  )

  (symbol (lib_id "power:GND") (at 118.11 176.53 0) (unit 1)
    (in_bom yes) (on_board yes) (fields_autoplaced)
    (uuid efc55178-e30f-4b13-856f-07247bff6b6a)
    (property "Reference" "#PWR0116" (id 0) (at 118.11 182.88 0)
      (effects (font (size 1.27 1.27)) hide)
    )
    (property "Value" "GND" (id 1) (at 118.11 181.0926 0)
      (effects (font (size 1.27 1.27)) hide)
    )
    (property "Footprint" "" (id 2) (at 118.11 176.53 0)
      (effects (font (size 1.27 1.27)) hide)
    )
    (property "Datasheet" "" (id 3) (at 118.11 176.53 0)
      (effects (font (size 1.27 1.27)) hide)
    )
    (pin "1" (uuid 7405b994-ed39-42b9-a647-06806981dd0e))
  )

  (symbol (lib_id "power:GND") (at 130.81 161.29 90) (unit 1)
    (in_bom yes) (on_board yes) (fields_autoplaced)
    (uuid f07dfc15-c4a8-4788-9ea1-709d72de8c55)
    (property "Reference" "#PWR0106" (id 0) (at 137.16 161.29 0)
      (effects (font (size 1.27 1.27)) hide)
    )
    (property "Value" "GND" (id 1) (at 135.3726 161.29 0)
      (effects (font (size 1.27 1.27)) hide)
    )
    (property "Footprint" "" (id 2) (at 130.81 161.29 0)
      (effects (font (size 1.27 1.27)) hide)
    )
    (property "Datasheet" "" (id 3) (at 130.81 161.29 0)
      (effects (font (size 1.27 1.27)) hide)
    )
    (pin "1" (uuid f5843c40-fbfb-45b8-b515-7e269adc6b97))
  )

  (sheet_instances
    (path "/" (page "1"))
  )

  (symbol_instances
    (path "/a45ee980-aeea-4c6b-9143-c277d42dc773"
      (reference "#PWR0101") (unit 1) (value "+3V3") (footprint "")
    )
    (path "/d62f80ea-d1cd-46d4-836a-fc573b2fa5e3"
      (reference "#PWR0102") (unit 1) (value "GND") (footprint "")
    )
    (path "/c9c8b9c9-0a8a-4188-bce0-779f94a88c3e"
      (reference "#PWR0103") (unit 1) (value "GND") (footprint "")
    )
    (path "/57658d93-34d1-4867-99d2-7538d2939c68"
      (reference "#PWR0104") (unit 1) (value "GND") (footprint "")
    )
    (path "/12c943ec-a0d1-4282-a073-8e9c93908e26"
      (reference "#PWR0105") (unit 1) (value "GND") (footprint "")
    )
    (path "/f07dfc15-c4a8-4788-9ea1-709d72de8c55"
      (reference "#PWR0106") (unit 1) (value "GND") (footprint "")
    )
    (path "/7a1a0959-3c45-4d1d-bc93-c09be831199e"
      (reference "#PWR0107") (unit 1) (value "+3V3") (footprint "")
    )
    (path "/37b974da-3810-4429-8160-fcb424bba88e"
      (reference "#PWR0108") (unit 1) (value "GND") (footprint "")
    )
    (path "/b8852360-ecd5-45e8-bebb-5cbcbf91c460"
      (reference "#PWR0109") (unit 1) (value "GND") (footprint "")
    )
    (path "/5e42962e-7bca-4ff4-8818-ecb2b6a3f4f5"
      (reference "#PWR0110") (unit 1) (value "+3V3") (footprint "")
    )
    (path "/d51afd9c-fe68-444c-a66d-de8022b346bf"
      (reference "#PWR0111") (unit 1) (value "+3V3") (footprint "")
    )
    (path "/9ea3db2e-7ca2-4d3e-a25a-80f7a817ee18"
      (reference "#PWR0112") (unit 1) (value "GND") (footprint "")
    )
    (path "/511a355e-cf77-45fe-98ed-67b5dfbdf978"
      (reference "#PWR0113") (unit 1) (value "+3V3") (footprint "")
    )
    (path "/c3cbceef-bd55-489c-8bc9-33ce768190ba"
      (reference "#PWR0114") (unit 1) (value "GND") (footprint "")
    )
    (path "/efc55178-e30f-4b13-856f-07247bff6b6a"
      (reference "#PWR0116") (unit 1) (value "GND") (footprint "")
    )
    (path "/ec464312-ddcc-4230-aa39-2bd6f1b8d086"
      (reference "#PWR0117") (unit 1) (value "+3V3") (footprint "")
    )
    (path "/11a203b8-663f-4a4e-92eb-1472044b35f6"
      (reference "#PWR0118") (unit 1) (value "GND") (footprint "")
    )
    (path "/4ba93830-f6a1-43b0-a329-3009ff2c2a82"
      (reference "#PWR0119") (unit 1) (value "GND") (footprint "")
    )
    (path "/aa2970e4-c802-44bd-b00c-e0ef0d6dbab9"
      (reference "#PWR0120") (unit 1) (value "+3V3") (footprint "")
    )
    (path "/83d81329-8144-415f-8cc1-ffe631a2c4fa"
      (reference "#PWR0121") (unit 1) (value "GND") (footprint "")
    )
    (path "/797e1f5e-9efb-474b-bb98-b33fc6032e6b"
      (reference "#PWR0133") (unit 1) (value "GND") (footprint "")
    )
    (path "/104335f9-031d-4351-a9ee-bc8e0a0ebab7"
      (reference "#PWR0134") (unit 1) (value "+3V3") (footprint "")
    )
    (path "/b55ca1af-c914-47af-beaa-6a4d6927e95b"
      (reference "#PWR0140") (unit 1) (value "+3V3") (footprint "")
    )
    (path "/56125807-6c72-4e7c-935e-1f8d9cbf293a"
      (reference "#PWR0141") (unit 1) (value "GND") (footprint "")
    )
    (path "/d23e06f6-98b7-4ce2-9336-628b3a7f817e"
      (reference "C1") (unit 1) (value "4.7 uF") (footprint "kicad_pcb:C_0603_1608Metric")
    )
    (path "/cc4af1a6-e97a-41f8-87f1-fa82749e1949"
      (reference "C2") (unit 1) (value "4.7 uF") (footprint "kicad_pcb:C_0603_1608Metric")
    )
    (path "/ad3d381f-c2c2-4284-85f8-9005c0f22a99"
      (reference "C3") (unit 1) (value "4.7 uF") (footprint "kicad_pcb:C_0603_1608Metric")
    )
    (path "/75ac0cd4-e65a-4c7b-8d1a-48f056a91ec4"
      (reference "C4") (unit 1) (value "4.7 uF") (footprint "kicad_pcb:C_0603_1608Metric")
    )
    (path "/840ee8cc-3f86-4b3e-9df3-6b8c863dc0ef"
      (reference "C10") (unit 1) (value "10 nF") (footprint "kicad_pcb:C_0603_1608Metric")
    )
    (path "/d0e10084-427a-4fb0-92b0-753eba462fdb"
      (reference "H1") (unit 1) (value "MountingHole_Pad") (footprint "MountingHole:MountingHole_3.2mm_M3_DIN965_Pad_TopBottom")
    )
    (path "/97bd8ed8-a5b5-4748-a05a-59dd05ea6422"
      (reference "J1") (unit 1) (value "TYPE-C-31-M-12") (footprint "kicad_pcb:USB_C_Receptacle_HRO_TYPE-C-31-M-12")
    )
    (path "/a0b82ef0-b4bf-4eb6-bc71-ecaffd281bfa"
      (reference "J2") (unit 1) (value "JST_PA2") (footprint "kicad_pcb:JST_PA_B02B-PASK_1x02_P2.00mm_Vertical")
    )
    (path "/0a2722db-1066-4a48-ab27-9049dff3c585"
      (reference "J3") (unit 1) (value "JST_PA4") (footprint "kicad_pcb:JST_PA_B04B-PASK_1x04_P2.00mm_Vertical")
    )
    (path "/c670082f-05e2-4898-b071-9d3ac6107f6c"
      (reference "JP1") (unit 1) (value "Jumper_2_Open") (footprint "TestPoint:TestPoint_2Pads_Pitch2.54mm_Drill0.8mm")
    )
    (path "/a2ba546a-32e5-4131-b2b7-f5f0b85174d6"
      (reference "R1") (unit 1) (value "5.1 k") (footprint "kicad_pcb:R_0402_1005Metric")
    )
    (path "/183ddd56-d2bc-48be-ad49-f1f8f9e3d1a0"
      (reference "R2") (unit 1) (value "5.1 k") (footprint "kicad_pcb:R_0402_1005Metric")
    )
    (path "/37884d57-2054-4498-8cf8-2a6a8053869e"
      (reference "R3") (unit 1) (value "3900 0.1%") (footprint "kicad_pcb:R_0402_1005Metric")
    )
    (path "/2d2c4159-e114-4e3f-bb31-9a17fa9f7e0f"
      (reference "R4") (unit 1) (value "5.1 k") (footprint "kicad_pcb:R_0402_1005Metric")
    )
    (path "/ae8d476d-61dc-42fb-ba00-f3214c0ea55d"
      (reference "R5") (unit 1) (value "5.1 k") (footprint "kicad_pcb:R_0402_1005Metric")
    )
    (path "/dce1d9fe-227e-4893-bddb-43f2f667c420"
      (reference "TH1") (unit 1) (value "tooling_hole") (footprint "kicad_pcb:tooling_hole_2.55")
    )
    (path "/7cdf63c6-8645-44c1-aa55-3e34dc970d6b"
      (reference "TH2") (unit 1) (value "tooling_hole") (footprint "kicad_pcb:tooling_hole_2.55")
    )
    (path "/3040d37a-90d5-47c8-8824-c7c98e575a85"
      (reference "TP1") (unit 1) (value "TestPoint") (footprint "TestPoint:TestPoint_THTPad_D1.5mm_Drill0.7mm")
    )
    (path "/b4c9b2ff-e2bc-418f-9934-c324ddb4d3b4"
      (reference "TP2") (unit 1) (value "TestPoint") (footprint "TestPoint:TestPoint_THTPad_D1.5mm_Drill0.7mm")
    )
    (path "/a16c004a-5b26-47df-8c69-c0278fbb44d7"
      (reference "TP3") (unit 1) (value "TestPoint") (footprint "TestPoint:TestPoint_THTPad_D1.5mm_Drill0.7mm")
    )
    (path "/0c56e4db-6afe-4992-9445-d64c5412810d"
      (reference "U1") (unit 1) (value "ESP32-C2-WROOM-02") (footprint "kicad_pcb:ESP-WROOM-02")
    )
    (path "/525e0135-6387-4249-bbdf-1bc42cfb1ed7"
      (reference "U2") (unit 1) (value "DR2TQ") (footprint "kicad_pcb:DFN-6-1EP_2x2mm_P0.65mm_EP1x1.6mm")
    )
    (path "/5d4c5cd9-5b0f-42b1-8cc4-c1ffd8778aab"
      (reference "U3") (unit 1) (value "MAX31865xTP") (footprint "Package_DFN_QFN:TQFN-20-1EP_5x5mm_P0.65mm_EP3.25x3.25mm")
    )
  )
)
