(kicad_symbol_lib (version 20210619) (generator kicad_symbol_editor)
  (symbol "Local:2SMPB-02B" (in_bom yes) (on_board yes)
    (property "Reference" "U" (id 0) (at -5.08 8.89 0)
      (effects (font (size 1.27 1.27)))
    )
    (property "Value" "2SMPB-02B" (id 1) (at 10.16 8.89 0)
      (effects (font (size 1.27 1.27)))
    )
    (property "Footprint" "Library:LGA-8_2SMPB-02B" (id 2) (at 0 0 0)
      (effects (font (size 1.27 1.27)) hide)
    )
    (property "Datasheet" "https://omronfs.omron.com/en_US/ecb/products/pdf/en-2smpb-02b.pdf" (id 3) (at 0 0 0)
      (effects (font (size 1.27 1.27)) hide)
    )
    (property "ki_description" "Barometric pressure sensor" (id 4) (at 0 0 0)
      (effects (font (size 1.27 1.27)) hide)
    )
    (symbol "2SMPB-02B_0_1"
      (rectangle (start -6.35 7.62) (end 6.35 -7.62)
        (stroke (width 0.1524)) (fill (type background))
      )
    )
    (symbol "2SMPB-02B_1_1"
      (pin input line (at -8.89 -5.08 0) (length 2.54)
        (name "RST" (effects (font (size 1.27 1.27))))
        (number "1" (effects (font (size 1.27 1.27))))
      )
      (pin input line (at -8.89 5.08 0) (length 2.54)
        (name "CSB" (effects (font (size 1.27 1.27))))
        (number "2" (effects (font (size 1.27 1.27))))
      )
      (pin bidirectional line (at -8.89 0 0) (length 2.54)
        (name "SDA" (effects (font (size 1.27 1.27))))
        (number "3" (effects (font (size 1.27 1.27))))
      )
      (pin bidirectional line (at -8.89 -2.54 0) (length 2.54)
        (name "SCL" (effects (font (size 1.27 1.27))))
        (number "4" (effects (font (size 1.27 1.27))))
      )
      (pin bidirectional line (at -8.89 2.54 0) (length 2.54)
        (name "ADDR" (effects (font (size 1.27 1.27))))
        (number "5" (effects (font (size 1.27 1.27))))
      )
      (pin power_in line (at 0 10.16 270) (length 2.54)
        (name "VDDIO" (effects (font (size 1.27 1.27))))
        (number "6" (effects (font (size 1.27 1.27))))
      )
      (pin bidirectional line (at 1.27 -10.16 90) (length 2.54)
        (name "GND" (effects (font (size 1.27 1.27))))
        (number "7" (effects (font (size 1.27 1.27))))
      )
      (pin power_in line (at 2.54 10.16 270) (length 2.54)
        (name "VDD" (effects (font (size 1.27 1.27))))
        (number "8" (effects (font (size 1.27 1.27))))
      )
    )
  )
  (symbol "Local:SGP40-D-R4" (in_bom yes) (on_board yes)
    (property "Reference" "U" (id 0) (at -3.81 10.16 0)
      (effects (font (size 1.27 1.27)))
    )
    (property "Value" "SGP40-D-R4" (id 1) (at 7.62 10.16 0)
      (effects (font (size 1.27 1.27)))
    )
    (property "Footprint" "Library:DFN_SGP40" (id 2) (at 0 0 0)
      (effects (font (size 1.27 1.27)) hide)
    )
    (property "Datasheet" "https://www.sensirion.com/fileadmin/user_upload/customers/sensirion/Dokumente/9_Gas_Sensors/Datasheets/Sensirion_Gas_Sensors_Datasheet_SGP40.pdf" (id 3) (at 0 0 0)
      (effects (font (size 1.27 1.27)) hide)
    )
    (property "ki_keywords" "VOC sensor" (id 4) (at 0 0 0)
      (effects (font (size 1.27 1.27)) hide)
    )
    (symbol "SGP40-D-R4_0_1"
      (rectangle (start -6.35 7.62) (end 6.35 -7.62)
        (stroke (width 0.1524)) (fill (type background))
      )
    )
    (symbol "SGP40-D-R4_1_1"
      (pin power_in line (at -1.27 10.16 270) (length 2.54)
        (name "VDD" (effects (font (size 1.27 1.27))))
        (number "1" (effects (font (size 1.27 1.27))))
      )
      (pin power_in line (at -2.54 -10.16 90) (length 2.54)
        (name "VSS" (effects (font (size 1.27 1.27))))
        (number "2" (effects (font (size 1.27 1.27))))
      )
      (pin bidirectional line (at -8.89 1.27 0) (length 2.54)
        (name "SDA" (effects (font (size 1.27 1.27))))
        (number "3" (effects (font (size 1.27 1.27))))
      )
      (pin bidirectional line (at 2.54 -10.16 90) (length 2.54)
        (name "GND" (effects (font (size 1.27 1.27))))
        (number "4" (effects (font (size 1.27 1.27))))
      )
      (pin power_in line (at 1.27 10.16 270) (length 2.54)
        (name "VDDH" (effects (font (size 1.27 1.27))))
        (number "5" (effects (font (size 1.27 1.27))))
      )
      (pin bidirectional line (at -8.89 -1.27 0) (length 2.54)
        (name "SCL" (effects (font (size 1.27 1.27))))
        (number "6" (effects (font (size 1.27 1.27))))
      )
      (pin bidirectional line (at 0 -10.16 90) (length 2.54)
        (name "GND" (effects (font (size 1.27 1.27))))
        (number "7" (effects (font (size 1.27 1.27))))
      )
    )
  )
  (symbol "Local:SHTC3" (in_bom yes) (on_board yes)
    (property "Reference" "U" (id 0) (at -3.81 10.16 0)
      (effects (font (size 1.27 1.27)))
    )
    (property "Value" "SHTC3" (id 1) (at 7.62 10.16 0)
      (effects (font (size 1.27 1.27)))
    )
    (property "Footprint" "Library:DFN4-SHTC3" (id 2) (at 0 0 0)
      (effects (font (size 1.27 1.27)) hide)
    )
    (property "Datasheet" "https://media.digikey.com/pdf/Data%20Sheets/Sensirion%20PDFs/HT_DS_SHTC3_D1.pdf" (id 3) (at 0 0 0)
      (effects (font (size 1.27 1.27)) hide)
    )
    (symbol "SHTC3_0_1"
      (rectangle (start -6.35 7.62) (end 6.35 -7.62)
        (stroke (width 0.1524)) (fill (type background))
      )
    )
    (symbol "SHTC3_1_1"
      (pin power_in line (at 0 10.16 270) (length 2.54)
        (name "VDD" (effects (font (size 1.27 1.27))))
        (number "1" (effects (font (size 1.27 1.27))))
      )
      (pin bidirectional line (at -8.89 -1.27 0) (length 2.54)
        (name "SCL" (effects (font (size 1.27 1.27))))
        (number "2" (effects (font (size 1.27 1.27))))
      )
      (pin bidirectional line (at -8.89 1.27 0) (length 2.54)
        (name "SDA" (effects (font (size 1.27 1.27))))
        (number "3" (effects (font (size 1.27 1.27))))
      )
      (pin power_in line (at -1.27 -10.16 90) (length 2.54)
        (name "VSS" (effects (font (size 1.27 1.27))))
        (number "4" (effects (font (size 1.27 1.27))))
      )
      (pin bidirectional line (at 1.27 -10.16 90) (length 2.54)
        (name "GND" (effects (font (size 1.27 1.27))))
        (number "5" (effects (font (size 1.27 1.27))))
      )
    )
  )
)
